%YAML 1.1
%TAG !u! tag:unity3d.com,2011:
--- !u!687078895 &4343727234628468602
SpriteAtlas:
  m_ObjectHideFlags: 0
  m_CorrespondingSourceObject: {fileID: 0}
  m_PrefabInstance: {fileID: 0}
  m_PrefabAsset: {fileID: 0}
  m_Name: Inventory
  m_EditorData:
    serializedVersion: 2
    textureSettings:
      serializedVersion: 2
      anisoLevel: 1
      compressionQuality: 50
      maxTextureSize: 2048
      textureCompression: 0
      filterMode: 1
      generateMipMaps: 0
      readable: 0
      crunchedCompression: 0
      sRGB: 1
    platformSettings:
    - serializedVersion: 3
      m_BuildTarget: Android
      m_MaxTextureSize: 2048
      m_ResizeAlgorithm: 0
      m_TextureFormat: 51
      m_TextureCompression: 1
      m_CompressionQuality: 50
      m_CrunchedCompression: 0
      m_AllowsAlphaSplitting: 0
      m_Overridden: 1
      m_AndroidETC2FallbackOverride: 0
      m_ForceMaximumCompressionQuality_BC6H_BC7: 0
    - serializedVersion: 3
      m_BuildTarget: iPhone
      m_MaxTextureSize: 1024
      m_ResizeAlgorithm: 0
      m_TextureFormat: 50
      m_TextureCompression: 1
      m_CompressionQuality: 50
      m_CrunchedCompression: 0
      m_AllowsAlphaSplitting: 0
      m_Overridden: 1
      m_AndroidETC2FallbackOverride: 0
      m_ForceMaximumCompressionQuality_BC6H_BC7: 0
    packingSettings:
      serializedVersion: 2
      padding: 4
      blockOffset: 1
      allowAlphaSplitting: 0
      enableRotation: 0
      enableTightPacking: 0
    variantMultiplier: 1
    packables:
    - {fileID: 102900000, guid: 4efd9e34cd6cc8040b25d955547d707d, type: 3}
    - {fileID: 102900000, guid: e7620d4ff88e4224b9eae047c7063b1d, type: 3}
    totalSpriteSurfaceArea: 1043466
    bindAsDefault: 1
  m_MasterAtlas: {fileID: 0}
  m_PackedSprites:
  - {fileID: 21300000, guid: 506c32a00d536c6498d808f572284e33, type: 3}
  - {fileID: 21300000, guid: f325446146f532d45ac3899f0e8c9f2d, type: 3}
  - {fileID: 21300000, guid: 69648b82f2c291b42badbffda36f13f1, type: 3}
  - {fileID: 21300000, guid: c3dbcb826a153fe4da85c47ba37ecdcc, type: 3}
  - {fileID: 21300000, guid: 988f26d2ebc18ba4088ea690d51591b3, type: 3}
  - {fileID: 21300000, guid: 8730a2f2d4ccc9d408e2487413916d04, type: 3}
  - {fileID: 21300000, guid: d59acdf2683b4984b91e6b9f2fba42ed, type: 3}
  - {fileID: 21300000, guid: 41f53f233e5d72f4b9196b950db2cd4b, type: 3}
  - {fileID: 21300000, guid: dffb14e3dd564b544bedd1f0f1f6f2d5, type: 3}
  - {fileID: 21300000, guid: ad5f5445dae3e024585f035eeb0a5fb8, type: 3}
  - {fileID: 21300000, guid: 65977655082286f4cb63c3e55f076637, type: 3}
  - {fileID: 21300000, guid: c9806365e4d208d45a15c880d29879a4, type: 3}
  - {fileID: 21300000, guid: e2eab9f5cc3145943884e0f38e346af6, type: 3}
  - {fileID: 21300000, guid: 9a13adf53feb3d04bbf5915b43f9974e, type: 3}
  - {fileID: 21300000, guid: d79af5073f2f79440ac285214f35c217, type: 3}
  - {fileID: 21300000, guid: 93ae3c37af20c9e4f9c8ee192b092086, type: 3}
  - {fileID: 21300000, guid: 94b8f647b443f614eb757f9f76f4f411, type: 3}
  - {fileID: 21300000, guid: ce1120a7b7af60247ad81ea386acc387, type: 3}
  - {fileID: 21300000, guid: 2f2cf91863c6c7f4b8f074bbb98392b4, type: 3}
  - {fileID: 21300000, guid: 2cf3e468543a5304c967a254756a6cdc, type: 3}
  - {fileID: 21300000, guid: 082c6e7879d8e4344a8ee1642c59b863, type: 3}
  - {fileID: 21300000, guid: a43213c88f9ff9242b9983f8ad251c6a, type: 3}
  - {fileID: 21300000, guid: 25894a39f626961418ec40383bbf3923, type: 3}
  - {fileID: 21300000, guid: a91d76a995ac8994b8f360334c1cf3b1, type: 3}
  - {fileID: 21300000, guid: 8b7d95d90dfc7574c89f9d51c72c35ef, type: 3}
  - {fileID: 21300000, guid: dc380f3a5e58a6447986e8f5473da015, type: 3}
  - {fileID: 21300000, guid: 10e4c74a2a00f894c9ddc0e6f897f6b9, type: 3}
  - {fileID: 21300000, guid: 5dc6b28ab6b88a145865f1d724defdad, type: 3}
  - {fileID: 21300000, guid: 4169049aea0fe9e4c87e4d7cfb8738cc, type: 3}
  - {fileID: 21300000, guid: ff7b1d4b2b6799a42a6b4db21f5e7689, type: 3}
  - {fileID: 21300000, guid: 17ad9e9bafb0bcb4fa65eb4f42b119b3, type: 3}
  - {fileID: 21300000, guid: bd4e202c3a6ad3a40beaba6468d48510, type: 3}
  - {fileID: 21300000, guid: fc49e97c60d82534495510908988aa52, type: 3}
  - {fileID: 21300000, guid: 36a05a0dde73b3241895fc829addce7d, type: 3}
  - {fileID: 21300000, guid: 209a7a0d9b1ffa14cb8ce6e8b0a52a52, type: 3}
  - {fileID: 21300000, guid: 2d33f21db484bdd4bbb089d89854f929, type: 3}
  - {fileID: 21300000, guid: a03e472dce232e44bba4858a374a0fc0, type: 3}
  - {fileID: 21300000, guid: 1ba23a2d46233914ca117c5ea4fe8be0, type: 3}
  - {fileID: 21300000, guid: bdf8895d038247847b45acb488dab0c4, type: 3}
  - {fileID: 21300000, guid: 15f363ede2e144a4abd359cf1342c786, type: 3}
  - {fileID: 21300000, guid: d182324fe37d2bd46afaecdc69fe0570, type: 3}
  m_PackedSpriteNamesToIndex:
  - Dexterity Armour_
  - HealthBarFill
  - ChestRoundIcon
  - LegIcon
  - AttackIcon copy
  - HealthIcon copy
  - Common Rifle
  - Redunderline
  - LeftRightArrowPress
  - EpicBox
  - Boots of Speed
  - Brown Boots
  - AttackIcon
  - Dune Armour
  - LvIcon
  - Epic Rifle
  - HealthIcon
  - LvIcon 1
  - LeftRightArrow
  - RifleRoundIcon
  - HeadRoundIcon
  - Helm
  - CommonBox
  - Classic Armour
  - Mask
  - StatBarEmpty
  - ArmRoundIcon
  - LvBarFill
  - NillBox
  - HeadIcon
  - ArmIcon
  - RifleIcon
  - AttackBarFill
  - UpgradeArrow
  - Seraph Tracers
  - RareBox
  - Helmet
  - Rare Rifle
  - InventoryHeader
  - ChestIcon
  - LegRoundIcon
  m_Tag: Inventory
  m_IsVariant: 0
