%YAML 1.1
%TAG !u! tag:unity3d.com,2011:
--- !u!687078895 &4343727234628468602
SpriteAtlas:
  m_ObjectHideFlags: 0
  m_CorrespondingSourceObject: {fileID: 0}
  m_PrefabInstance: {fileID: 0}
  m_PrefabAsset: {fileID: 0}
  m_Name: Popups
  m_EditorData:
    serializedVersion: 2
    textureSettings:
      serializedVersion: 2
      anisoLevel: 1
      compressionQuality: 50
      maxTextureSize: 2048
      textureCompression: 0
      filterMode: 1
      generateMipMaps: 0
      readable: 0
      crunchedCompression: 0
      sRGB: 1
    platformSettings:
    - serializedVersion: 3
      m_BuildTarget: Android
      m_MaxTextureSize: 2048
      m_ResizeAlgorithm: 0
      m_TextureFormat: 51
      m_TextureCompression: 1
      m_CompressionQuality: 50
      m_CrunchedCompression: 0
      m_AllowsAlphaSplitting: 0
      m_Overridden: 1
      m_AndroidETC2FallbackOverride: 0
      m_ForceMaximumCompressionQuality_BC6H_BC7: 0
    - serializedVersion: 3
      m_BuildTarget: iPhone
      m_MaxTextureSize: 1024
      m_ResizeAlgorithm: 0
      m_TextureFormat: 50
      m_TextureCompression: 1
      m_CompressionQuality: 50
      m_CrunchedCompression: 0
      m_AllowsAlphaSplitting: 0
      m_Overridden: 1
      m_AndroidETC2FallbackOverride: 0
      m_ForceMaximumCompressionQuality_BC6H_BC7: 0
    packingSettings:
      serializedVersion: 2
      padding: 4
      blockOffset: 1
      allowAlphaSplitting: 0
      enableRotation: 0
      enableTightPacking: 0
    variantMultiplier: 1
    packables:
    - {fileID: 102900000, guid: 9cc47f05677bba64497f301ee4f61b26, type: 3}
    - {fileID: 102900000, guid: 84284884f862b2b469cdf3981ca3c1ba, type: 3}
    - {fileID: 102900000, guid: 934a43d7d85fe5f46a0cce4b6f397514, type: 3}
    - {fileID: 102900000, guid: 0ea9354fdf6ca2d46be5754fdbe6a2b6, type: 3}
    - {fileID: 102900000, guid: 0a28382325b21c04588344a959b169f2, type: 3}
    totalSpriteSurfaceArea: 2412681
    bindAsDefault: 1
  m_MasterAtlas: {fileID: 0}
  m_PackedSprites:
  - {fileID: 21300000, guid: a98e5f300e321c74683605c7658ed8af, type: 3}
  - {fileID: 21300000, guid: 45796260dc4130f428ec308a7552af0e, type: 3}
  - {fileID: 21300000, guid: fc712480cdee4ff4ab7b3e8f4fa005d3, type: 3}
  - {fileID: 21300000, guid: 8d98998069091d442aef85524aac7c2b, type: 3}
  - {fileID: 21300000, guid: cb5aae902de9dad498ecfb20264483d2, type: 3}
  - {fileID: 21300000, guid: 778be8a0f112760498df460deece5897, type: 3}
  - {fileID: 21300000, guid: 028ca4c0bf2dbfd4fa6805e71cb0c40a, type: 3}
  - {fileID: 21300000, guid: 997294e0685319d4ea40c1de4a15ae5a, type: 3}
  - {fileID: 21300000, guid: 45726c53858d9af4ab0b793a1ee7a016, type: 3}
  - {fileID: 21300000, guid: d3ee2b6393c541848931d936261abc02, type: 3}
  - {fileID: 21300000, guid: c3034e34017a97b4da08232e76e6f347, type: 3}
  - {fileID: 21300000, guid: bb6cbc948f23e554d807be45819bd295, type: 3}
  - {fileID: 21300000, guid: ed244d35c20aa4a4294a5ff02d74b91c, type: 3}
  - {fileID: 21300000, guid: 23dc96554c58646469d36d82bb8cedd9, type: 3}
  - {fileID: 21300000, guid: 3d22ee6556e83c34295cbc2716ffc9d1, type: 3}
  - {fileID: 21300000, guid: 7946cba56d4dd054bbf0ff632b4a905b, type: 3}
  - {fileID: 21300000, guid: 53d317a6ec8dd4e4a8d708121e630a5f, type: 3}
  - {fileID: 21300000, guid: ba38f3c6966ef734eaee83eb8042ae0f, type: 3}
  - {fileID: 21300000, guid: 87032df690841e84f984cb1cca1b8baf, type: 3}
  - {fileID: 21300000, guid: b81b4bf7f146c0e4292d5cffeb77c596, type: 3}
  - {fileID: 21300000, guid: d923bb7a9ef47da458677e6bea0272fb, type: 3}
  - {fileID: 21300000, guid: 5e79f58b81e48b8478e9ea2d342150c5, type: 3}
  - {fileID: 21300000, guid: 3a6e8b6da0614f841a3d8d59c638f9ed, type: 3}
  - {fileID: 21300000, guid: 9021d9ad308daba40ba4f5968a28fb15, type: 3}
  - {fileID: 21300000, guid: f116e8de46d8b5d41be386f019b1e936, type: 3}
  - {fileID: 21300000, guid: 2efde4ee3bc26da40b8a68ee12e73143, type: 3}
  - {fileID: 21300000, guid: 7ac9fd5fb166e5f48b41d1decb2745fa, type: 3}
  - {fileID: 21300000, guid: dd1bbaffeecda474682188a37a6f097a, type: 3}
  m_PackedSpriteNamesToIndex:
  - TransTab
  - AdIconPress
  - RedButtonPress
  - CrossIconPress
  - Button
  - CrossIcon
  - TextPanelSelect
  - Panel2
  - TabPress
  - BigLvBarEmpty
  - new
  - HistoryTabSelect
  - Tab
  - Panel1
  - TimerCircle
  - AdButtonPress
  - AdIcon
  - RedButton
  - EnergyBigIcon
  - AdButton
  - HistoryTabBg
  - DownArrow
  - HistoryTab
  - BigLvBarFill
  - SatoshiCoinPress
  - TextPanel
  - SatoshiCoin
  - ButtonPress
  m_Tag: Popups
  m_IsVariant: 0
