%YAML 1.1
%TAG !u! tag:unity3d.com,2011:
--- !u!687078895 &4343727234628468602
SpriteAtlas:
  m_ObjectHideFlags: 0
  m_CorrespondingSourceObject: {fileID: 0}
  m_PrefabInstance: {fileID: 0}
  m_PrefabAsset: {fileID: 0}
  m_Name: Shop
  m_EditorData:
    serializedVersion: 2
    textureSettings:
      serializedVersion: 2
      anisoLevel: 1
      compressionQuality: 50
      maxTextureSize: 2048
      textureCompression: 0
      filterMode: 1
      generateMipMaps: 0
      readable: 0
      crunchedCompression: 0
      sRGB: 1
    platformSettings:
    - serializedVersion: 3
      m_BuildTarget: Android
      m_MaxTextureSize: 2048
      m_ResizeAlgorithm: 0
      m_TextureFormat: 51
      m_TextureCompression: 1
      m_CompressionQuality: 50
      m_CrunchedCompression: 0
      m_AllowsAlphaSplitting: 0
      m_Overridden: 1
      m_AndroidETC2FallbackOverride: 0
      m_ForceMaximumCompressionQuality_BC6H_BC7: 0
    - serializedVersion: 3
      m_BuildTarget: iPhone
      m_MaxTextureSize: 1024
      m_ResizeAlgorithm: 0
      m_TextureFormat: 31
      m_TextureCompression: 1
      m_CompressionQuality: 100
      m_CrunchedCompression: 0
      m_AllowsAlphaSplitting: 0
      m_Overridden: 1
      m_AndroidETC2FallbackOverride: 0
      m_ForceMaximumCompressionQuality_BC6H_BC7: 0
    packingSettings:
      serializedVersion: 2
      padding: 4
      blockOffset: 1
      allowAlphaSplitting: 0
      enableRotation: 0
      enableTightPacking: 0
    variantMultiplier: 1
    packables:
    - {fileID: 2800000, guid: d1719a2d0363f4409900319b6143c550, type: 3}
    - {fileID: 2800000, guid: 4e402e7bb3616408f985b84897548f6d, type: 3}
    - {fileID: 2800000, guid: 5f380f4c24ce245fbbb854e5b55e9b3a, type: 3}
    - {fileID: 2800000, guid: 43cc2c21e189e4a6c8902a71596910af, type: 3}
    - {fileID: 2800000, guid: 2535a421e15f74e4db8afae959bf033d, type: 3}
    - {fileID: 2800000, guid: 6ff658b3790fc4145afecce334e9a1e0, type: 3}
    - {fileID: 2800000, guid: e95f54405edb04325af8100fc9da3341, type: 3}
    - {fileID: 2800000, guid: 07e0e2876428a491bbaf63177b076b2e, type: 3}
    - {fileID: 2800000, guid: 5ca550e144e3b4c36a0770eb83418dbf, type: 3}
    - {fileID: 2800000, guid: b13410e8cf6af4dd79d914c59e9b3274, type: 3}
    - {fileID: 2800000, guid: 99cbadb5cfeb0466d9565f3d5961ce39, type: 3}
    - {fileID: 2800000, guid: c12bf8a8d104749fb9d02c77aec0eb69, type: 3}
    - {fileID: 2800000, guid: 267f0aeb955607842884fc349d3ba4b1, type: 3}
    totalSpriteSurfaceArea: 2492551
    bindAsDefault: 1
  m_MasterAtlas: {fileID: 0}
  m_PackedSprites:
  - {fileID: 21300000, guid: e95f54405edb04325af8100fc9da3341, type: 3}
  - {fileID: 21300000, guid: 2535a421e15f74e4db8afae959bf033d, type: 3}
  - {fileID: 21300000, guid: 43cc2c21e189e4a6c8902a71596910af, type: 3}
  - {fileID: 21300000, guid: 5ca550e144e3b4c36a0770eb83418dbf, type: 3}
  - {fileID: 21300000, guid: 6ff658b3790fc4145afecce334e9a1e0, type: 3}
  - {fileID: 21300000, guid: 99cbadb5cfeb0466d9565f3d5961ce39, type: 3}
  - {fileID: 21300000, guid: 07e0e2876428a491bbaf63177b076b2e, type: 3}
  - {fileID: 21300000, guid: c12bf8a8d104749fb9d02c77aec0eb69, type: 3}
  - {fileID: 21300000, guid: b13410e8cf6af4dd79d914c59e9b3274, type: 3}
  - {fileID: 21300000, guid: 4e402e7bb3616408f985b84897548f6d, type: 3}
  - {fileID: 21300000, guid: 267f0aeb955607842884fc349d3ba4b1, type: 3}
  - {fileID: 21300000, guid: 5f380f4c24ce245fbbb854e5b55e9b3a, type: 3}
  - {fileID: 21300000, guid: d1719a2d0363f4409900319b6143c550, type: 3}
  m_PackedSpriteNamesToIndex:
  - ObsidianPanel
  - heap
  - CommonPanel
  - PriceButton
  - ObsidianChest
  - ShopHeader
  - pile
  - ShopSatoshiPanel
  - PriceButtonPress
  - chest
  - Notification
  - CommonChest
  - bucket
  m_Tag: Shop
  m_IsVariant: 0
