%YAML 1.1
%TAG !u! tag:unity3d.com,2011:
--- !u!29 &1
OcclusionCullingSettings:
  m_ObjectHideFlags: 0
  serializedVersion: 2
  m_OcclusionBakeSettings:
    smallestOccluder: 5
    smallestHole: 0.25
    backfaceThreshold: 100
  m_SceneGUID: 00000000000000000000000000000000
  m_OcclusionCullingData: {fileID: 0}
--- !u!104 &2
RenderSettings:
  m_ObjectHideFlags: 0
  serializedVersion: 9
  m_Fog: 0
  m_FogColor: {r: 0.5, g: 0.5, b: 0.5, a: 1}
  m_FogMode: 3
  m_FogDensity: 0.01
  m_LinearFogStart: 0
  m_LinearFogEnd: 300
  m_AmbientSkyColor: {r: 0.212, g: 0.227, b: 0.259, a: 1}
  m_AmbientEquatorColor: {r: 0.114, g: 0.125, b: 0.133, a: 1}
  m_AmbientGroundColor: {r: 0.047, g: 0.043, b: 0.035, a: 1}
  m_AmbientIntensity: 1
  m_AmbientMode: 0
  m_SubtractiveShadowColor: {r: 0.42, g: 0.478, b: 0.627, a: 1}
  m_SkyboxMaterial: {fileID: 10304, guid: 0000000000000000f000000000000000, type: 0}
  m_HaloStrength: 0.5
  m_FlareStrength: 1
  m_FlareFadeSpeed: 3
  m_HaloTexture: {fileID: 0}
  m_SpotCookie: {fileID: 10001, guid: 0000000000000000e000000000000000, type: 0}
  m_DefaultReflectionMode: 0
  m_DefaultReflectionResolution: 128
  m_ReflectionBounces: 1
  m_ReflectionIntensity: 1
  m_CustomReflection: {fileID: 0}
  m_Sun: {fileID: 0}
  m_IndirectSpecularColor: {r: 0, g: 0, b: 0, a: 1}
  m_UseRadianceAmbientProbe: 0
--- !u!157 &3
LightmapSettings:
  m_ObjectHideFlags: 0
  serializedVersion: 11
  m_GIWorkflowMode: 1
  m_GISettings:
    serializedVersion: 2
    m_BounceScale: 1
    m_IndirectOutputScale: 1
    m_AlbedoBoost: 1
    m_EnvironmentLightingMode: 0
    m_EnableBakedLightmaps: 1
    m_EnableRealtimeLightmaps: 1
  m_LightmapEditorSettings:
    serializedVersion: 12
    m_Resolution: 2
    m_BakeResolution: 40
    m_AtlasSize: 1024
    m_AO: 0
    m_AOMaxDistance: 1
    m_CompAOExponent: 1
    m_CompAOExponentDirect: 0
    m_ExtractAmbientOcclusion: 0
    m_Padding: 2
    m_LightmapParameters: {fileID: 0}
    m_LightmapsBakeMode: 1
    m_TextureCompression: 1
    m_FinalGather: 0
    m_FinalGatherFiltering: 1
    m_FinalGatherRayCount: 256
    m_ReflectionCompression: 2
    m_MixedBakeMode: 2
    m_BakeBackend: 1
    m_PVRSampling: 1
    m_PVRDirectSampleCount: 32
    m_PVRSampleCount: 512
    m_PVRBounces: 2
    m_PVREnvironmentSampleCount: 256
    m_PVREnvironmentReferencePointCount: 2048
    m_PVRFilteringMode: 1
    m_PVRDenoiserTypeDirect: 1
    m_PVRDenoiserTypeIndirect: 1
    m_PVRDenoiserTypeAO: 1
    m_PVRFilterTypeDirect: 0
    m_PVRFilterTypeIndirect: 0
    m_PVRFilterTypeAO: 0
    m_PVREnvironmentMIS: 1
    m_PVRCulling: 1
    m_PVRFilteringGaussRadiusDirect: 1
    m_PVRFilteringGaussRadiusIndirect: 5
    m_PVRFilteringGaussRadiusAO: 2
    m_PVRFilteringAtrousPositionSigmaDirect: 0.5
    m_PVRFilteringAtrousPositionSigmaIndirect: 2
    m_PVRFilteringAtrousPositionSigmaAO: 1
    m_ExportTrainingData: 0
    m_TrainingDataDestination: TrainingData
  m_LightingDataAsset: {fileID: 0}
  m_UseShadowmask: 1
--- !u!196 &4
NavMeshSettings:
  serializedVersion: 2
  m_ObjectHideFlags: 0
  m_BuildSettings:
    serializedVersion: 2
    agentTypeID: 0
    agentRadius: 0.5
    agentHeight: 2
    agentSlope: 45
    agentClimb: 0.4
    ledgeDropHeight: 0
    maxJumpAcrossDistance: 0
    minRegionArea: 2
    manualCellSize: 0
    cellSize: 0.16666667
    manualTileSize: 0
    tileSize: 256
    accuratePlacement: 0
    debug:
      m_Flags: 0
  m_NavMeshData: {fileID: 0}
--- !u!1001 &18932641
PrefabInstance:
  m_ObjectHideFlags: 0
  serializedVersion: 2
  m_Modification:
    m_TransformParent: {fileID: 0}
    m_Modifications:
    - target: {fileID: 4242025528285323700, guid: e4caa8176ba3b4c1e8d5a87aa631e3a0,
        type: 3}
      propertyPath: m_Name
      value: Water (3)
      objectReference: {fileID: 0}
    - target: {fileID: 8882138379518226771, guid: e4caa8176ba3b4c1e8d5a87aa631e3a0,
        type: 3}
      propertyPath: m_LocalPosition.x
      value: -2
      objectReference: {fileID: 0}
    - target: {fileID: 8882138379518226771, guid: e4caa8176ba3b4c1e8d5a87aa631e3a0,
        type: 3}
      propertyPath: m_LocalPosition.y
      value: 0
      objectReference: {fileID: 0}
    - target: {fileID: 8882138379518226771, guid: e4caa8176ba3b4c1e8d5a87aa631e3a0,
        type: 3}
      propertyPath: m_LocalPosition.z
      value: 16
      objectReference: {fileID: 0}
    - target: {fileID: 8882138379518226771, guid: e4caa8176ba3b4c1e8d5a87aa631e3a0,
        type: 3}
      propertyPath: m_LocalRotation.x
      value: 0
      objectReference: {fileID: 0}
    - target: {fileID: 8882138379518226771, guid: e4caa8176ba3b4c1e8d5a87aa631e3a0,
        type: 3}
      propertyPath: m_LocalRotation.y
      value: 0
      objectReference: {fileID: 0}
    - target: {fileID: 8882138379518226771, guid: e4caa8176ba3b4c1e8d5a87aa631e3a0,
        type: 3}
      propertyPath: m_LocalRotation.z
      value: 0
      objectReference: {fileID: 0}
    - target: {fileID: 8882138379518226771, guid: e4caa8176ba3b4c1e8d5a87aa631e3a0,
        type: 3}
      propertyPath: m_LocalRotation.w
      value: 1
      objectReference: {fileID: 0}
    - target: {fileID: 8882138379518226771, guid: e4caa8176ba3b4c1e8d5a87aa631e3a0,
        type: 3}
      propertyPath: m_RootOrder
      value: 18
      objectReference: {fileID: 0}
    - target: {fileID: 8882138379518226771, guid: e4caa8176ba3b4c1e8d5a87aa631e3a0,
        type: 3}
      propertyPath: m_LocalEulerAnglesHint.x
      value: 0
      objectReference: {fileID: 0}
    - target: {fileID: 8882138379518226771, guid: e4caa8176ba3b4c1e8d5a87aa631e3a0,
        type: 3}
      propertyPath: m_LocalEulerAnglesHint.y
      value: 0
      objectReference: {fileID: 0}
    - target: {fileID: 8882138379518226771, guid: e4caa8176ba3b4c1e8d5a87aa631e3a0,
        type: 3}
      propertyPath: m_LocalEulerAnglesHint.z
      value: 0
      objectReference: {fileID: 0}
    - target: {fileID: 8882138379518226771, guid: e4caa8176ba3b4c1e8d5a87aa631e3a0,
        type: 3}
      propertyPath: m_LocalScale.x
      value: 1
      objectReference: {fileID: 0}
    - target: {fileID: 8882138379518226771, guid: e4caa8176ba3b4c1e8d5a87aa631e3a0,
        type: 3}
      propertyPath: m_LocalScale.z
      value: 1
      objectReference: {fileID: 0}
    - target: {fileID: 7021193985524820127, guid: e4caa8176ba3b4c1e8d5a87aa631e3a0,
        type: 3}
      propertyPath: m_IsTrigger
      value: 0
      objectReference: {fileID: 0}
    m_RemovedComponents: []
  m_SourcePrefab: {fileID: 100100000, guid: e4caa8176ba3b4c1e8d5a87aa631e3a0, type: 3}
--- !u!1001 &23508888
PrefabInstance:
  m_ObjectHideFlags: 0
  serializedVersion: 2
  m_Modification:
    m_TransformParent: {fileID: 0}
    m_Modifications:
    - target: {fileID: 5584066692918821512, guid: d33b766327772479cb68a9a1e10dfe39,
        type: 3}
      propertyPath: m_Name
      value: Flying
      objectReference: {fileID: 0}
    - target: {fileID: 5584066692918821516, guid: d33b766327772479cb68a9a1e10dfe39,
        type: 3}
      propertyPath: m_LocalPosition.x
      value: 0.07
      objectReference: {fileID: 0}
    - target: {fileID: 5584066692918821516, guid: d33b766327772479cb68a9a1e10dfe39,
        type: 3}
      propertyPath: m_LocalPosition.y
      value: 0.005000001
      objectReference: {fileID: 0}
    - target: {fileID: 5584066692918821516, guid: d33b766327772479cb68a9a1e10dfe39,
        type: 3}
      propertyPath: m_LocalPosition.z
      value: 18.2
      objectReference: {fileID: 0}
    - target: {fileID: 5584066692918821516, guid: d33b766327772479cb68a9a1e10dfe39,
        type: 3}
      propertyPath: m_LocalRotation.x
      value: 0
      objectReference: {fileID: 0}
    - target: {fileID: 5584066692918821516, guid: d33b766327772479cb68a9a1e10dfe39,
        type: 3}
      propertyPath: m_LocalRotation.y
      value: 1
      objectReference: {fileID: 0}
    - target: {fileID: 5584066692918821516, guid: d33b766327772479cb68a9a1e10dfe39,
        type: 3}
      propertyPath: m_LocalRotation.z
      value: 0
      objectReference: {fileID: 0}
    - target: {fileID: 5584066692918821516, guid: d33b766327772479cb68a9a1e10dfe39,
        type: 3}
      propertyPath: m_LocalRotation.w
      value: 0
      objectReference: {fileID: 0}
    - target: {fileID: 5584066692918821516, guid: d33b766327772479cb68a9a1e10dfe39,
        type: 3}
      propertyPath: m_RootOrder
      value: 2
      objectReference: {fileID: 0}
    - target: {fileID: 5584066692918821516, guid: d33b766327772479cb68a9a1e10dfe39,
        type: 3}
      propertyPath: m_LocalEulerAnglesHint.x
      value: 0
      objectReference: {fileID: 0}
    - target: {fileID: 5584066692918821516, guid: d33b766327772479cb68a9a1e10dfe39,
        type: 3}
      propertyPath: m_LocalEulerAnglesHint.y
      value: 180
      objectReference: {fileID: 0}
    - target: {fileID: 5584066692918821516, guid: d33b766327772479cb68a9a1e10dfe39,
        type: 3}
      propertyPath: m_LocalEulerAnglesHint.z
      value: 0
      objectReference: {fileID: 0}
    m_RemovedComponents: []
  m_SourcePrefab: {fileID: 100100000, guid: d33b766327772479cb68a9a1e10dfe39, type: 3}
--- !u!1001 &82733305
PrefabInstance:
  m_ObjectHideFlags: 0
  serializedVersion: 2
  m_Modification:
    m_TransformParent: {fileID: 0}
    m_Modifications:
    - target: {fileID: 4242025528285323700, guid: e4caa8176ba3b4c1e8d5a87aa631e3a0,
        type: 3}
      propertyPath: m_Name
      value: Water (2)
      objectReference: {fileID: 0}
    - target: {fileID: 8882138379518226771, guid: e4caa8176ba3b4c1e8d5a87aa631e3a0,
        type: 3}
      propertyPath: m_LocalPosition.x
      value: 2
      objectReference: {fileID: 0}
    - target: {fileID: 8882138379518226771, guid: e4caa8176ba3b4c1e8d5a87aa631e3a0,
        type: 3}
      propertyPath: m_LocalPosition.y
      value: 0
      objectReference: {fileID: 0}
    - target: {fileID: 8882138379518226771, guid: e4caa8176ba3b4c1e8d5a87aa631e3a0,
        type: 3}
      propertyPath: m_LocalPosition.z
      value: 7
      objectReference: {fileID: 0}
    - target: {fileID: 8882138379518226771, guid: e4caa8176ba3b4c1e8d5a87aa631e3a0,
        type: 3}
      propertyPath: m_LocalRotation.x
      value: 0
      objectReference: {fileID: 0}
    - target: {fileID: 8882138379518226771, guid: e4caa8176ba3b4c1e8d5a87aa631e3a0,
        type: 3}
      propertyPath: m_LocalRotation.y
      value: 0
      objectReference: {fileID: 0}
    - target: {fileID: 8882138379518226771, guid: e4caa8176ba3b4c1e8d5a87aa631e3a0,
        type: 3}
      propertyPath: m_LocalRotation.z
      value: 0
      objectReference: {fileID: 0}
    - target: {fileID: 8882138379518226771, guid: e4caa8176ba3b4c1e8d5a87aa631e3a0,
        type: 3}
      propertyPath: m_LocalRotation.w
      value: 1
      objectReference: {fileID: 0}
    - target: {fileID: 8882138379518226771, guid: e4caa8176ba3b4c1e8d5a87aa631e3a0,
        type: 3}
      propertyPath: m_RootOrder
      value: 8
      objectReference: {fileID: 0}
    - target: {fileID: 8882138379518226771, guid: e4caa8176ba3b4c1e8d5a87aa631e3a0,
        type: 3}
      propertyPath: m_LocalEulerAnglesHint.x
      value: 0
      objectReference: {fileID: 0}
    - target: {fileID: 8882138379518226771, guid: e4caa8176ba3b4c1e8d5a87aa631e3a0,
        type: 3}
      propertyPath: m_LocalEulerAnglesHint.y
      value: 0
      objectReference: {fileID: 0}
    - target: {fileID: 8882138379518226771, guid: e4caa8176ba3b4c1e8d5a87aa631e3a0,
        type: 3}
      propertyPath: m_LocalEulerAnglesHint.z
      value: 0
      objectReference: {fileID: 0}
    - target: {fileID: 8882138379518226771, guid: e4caa8176ba3b4c1e8d5a87aa631e3a0,
        type: 3}
      propertyPath: m_LocalScale.x
      value: 1
      objectReference: {fileID: 0}
    - target: {fileID: 8882138379518226771, guid: e4caa8176ba3b4c1e8d5a87aa631e3a0,
        type: 3}
      propertyPath: m_LocalScale.z
      value: 1
      objectReference: {fileID: 0}
    - target: {fileID: 7021193985524820127, guid: e4caa8176ba3b4c1e8d5a87aa631e3a0,
        type: 3}
      propertyPath: m_IsTrigger
      value: 0
      objectReference: {fileID: 0}
    m_RemovedComponents: []
  m_SourcePrefab: {fileID: 100100000, guid: e4caa8176ba3b4c1e8d5a87aa631e3a0, type: 3}
--- !u!1001 &196216207
PrefabInstance:
  m_ObjectHideFlags: 0
  serializedVersion: 2
  m_Modification:
    m_TransformParent: {fileID: 0}
    m_Modifications:
    - target: {fileID: 2869952636615049436, guid: 2de006cbe1dcf4b27819c6516fc8cf92,
        type: 3}
      propertyPath: m_Name
      value: Walking (3)
      objectReference: {fileID: 0}
    - target: {fileID: 2869952636615049432, guid: 2de006cbe1dcf4b27819c6516fc8cf92,
        type: 3}
      propertyPath: m_LocalPosition.x
      value: 3.14
      objectReference: {fileID: 0}
    - target: {fileID: 2869952636615049432, guid: 2de006cbe1dcf4b27819c6516fc8cf92,
        type: 3}
      propertyPath: m_LocalPosition.y
      value: 0.005000001
      objectReference: {fileID: 0}
    - target: {fileID: 2869952636615049432, guid: 2de006cbe1dcf4b27819c6516fc8cf92,
        type: 3}
      propertyPath: m_LocalPosition.z
      value: 9.01
      objectReference: {fileID: 0}
    - target: {fileID: 2869952636615049432, guid: 2de006cbe1dcf4b27819c6516fc8cf92,
        type: 3}
      propertyPath: m_LocalRotation.x
      value: 0
      objectReference: {fileID: 0}
    - target: {fileID: 2869952636615049432, guid: 2de006cbe1dcf4b27819c6516fc8cf92,
        type: 3}
      propertyPath: m_LocalRotation.y
      value: 1
      objectReference: {fileID: 0}
    - target: {fileID: 2869952636615049432, guid: 2de006cbe1dcf4b27819c6516fc8cf92,
        type: 3}
      propertyPath: m_LocalRotation.z
      value: 0
      objectReference: {fileID: 0}
    - target: {fileID: 2869952636615049432, guid: 2de006cbe1dcf4b27819c6516fc8cf92,
        type: 3}
      propertyPath: m_LocalRotation.w
      value: 0
      objectReference: {fileID: 0}
    - target: {fileID: 2869952636615049432, guid: 2de006cbe1dcf4b27819c6516fc8cf92,
        type: 3}
      propertyPath: m_RootOrder
      value: 28
      objectReference: {fileID: 0}
    - target: {fileID: 2869952636615049432, guid: 2de006cbe1dcf4b27819c6516fc8cf92,
        type: 3}
      propertyPath: m_LocalEulerAnglesHint.x
      value: 0
      objectReference: {fileID: 0}
    - target: {fileID: 2869952636615049432, guid: 2de006cbe1dcf4b27819c6516fc8cf92,
        type: 3}
      propertyPath: m_LocalEulerAnglesHint.y
      value: 180
      objectReference: {fileID: 0}
    - target: {fileID: 2869952636615049432, guid: 2de006cbe1dcf4b27819c6516fc8cf92,
        type: 3}
      propertyPath: m_LocalEulerAnglesHint.z
      value: 0
      objectReference: {fileID: 0}
    m_RemovedComponents: []
  m_SourcePrefab: {fileID: 100100000, guid: 2de006cbe1dcf4b27819c6516fc8cf92, type: 3}
--- !u!1001 &213195427
PrefabInstance:
  m_ObjectHideFlags: 0
  serializedVersion: 2
  m_Modification:
    m_TransformParent: {fileID: 0}
    m_Modifications:
    - target: {fileID: 541086448501739023, guid: 4523de4e8af494a8e879ee7f4b53f5da,
        type: 3}
      propertyPath: m_Name
      value: Wall (12)
      objectReference: {fileID: 0}
    - target: {fileID: 541086448501739009, guid: 4523de4e8af494a8e879ee7f4b53f5da,
        type: 3}
      propertyPath: m_LocalPosition.x
      value: 1
      objectReference: {fileID: 0}
    - target: {fileID: 541086448501739009, guid: 4523de4e8af494a8e879ee7f4b53f5da,
        type: 3}
      propertyPath: m_LocalPosition.y
      value: 0
      objectReference: {fileID: 0}
    - target: {fileID: 541086448501739009, guid: 4523de4e8af494a8e879ee7f4b53f5da,
        type: 3}
      propertyPath: m_LocalPosition.z
      value: 3
      objectReference: {fileID: 0}
    - target: {fileID: 541086448501739009, guid: 4523de4e8af494a8e879ee7f4b53f5da,
        type: 3}
      propertyPath: m_LocalRotation.x
      value: 0
      objectReference: {fileID: 0}
    - target: {fileID: 541086448501739009, guid: 4523de4e8af494a8e879ee7f4b53f5da,
        type: 3}
      propertyPath: m_LocalRotation.y
      value: 0
      objectReference: {fileID: 0}
    - target: {fileID: 541086448501739009, guid: 4523de4e8af494a8e879ee7f4b53f5da,
        type: 3}
      propertyPath: m_LocalRotation.z
      value: 0
      objectReference: {fileID: 0}
    - target: {fileID: 541086448501739009, guid: 4523de4e8af494a8e879ee7f4b53f5da,
        type: 3}
      propertyPath: m_LocalRotation.w
      value: 1
      objectReference: {fileID: 0}
    - target: {fileID: 541086448501739009, guid: 4523de4e8af494a8e879ee7f4b53f5da,
        type: 3}
      propertyPath: m_RootOrder
      value: 29
      objectReference: {fileID: 0}
    - target: {fileID: 541086448501739009, guid: 4523de4e8af494a8e879ee7f4b53f5da,
        type: 3}
      propertyPath: m_LocalEulerAnglesHint.x
      value: 0
      objectReference: {fileID: 0}
    - target: {fileID: 541086448501739009, guid: 4523de4e8af494a8e879ee7f4b53f5da,
        type: 3}
      propertyPath: m_LocalEulerAnglesHint.y
      value: 0
      objectReference: {fileID: 0}
    - target: {fileID: 541086448501739009, guid: 4523de4e8af494a8e879ee7f4b53f5da,
        type: 3}
      propertyPath: m_LocalEulerAnglesHint.z
      value: 0
      objectReference: {fileID: 0}
    - target: {fileID: 541086448501739009, guid: 4523de4e8af494a8e879ee7f4b53f5da,
        type: 3}
      propertyPath: m_LocalScale.x
      value: 1
      objectReference: {fileID: 0}
    - target: {fileID: 541086448501739009, guid: 4523de4e8af494a8e879ee7f4b53f5da,
        type: 3}
      propertyPath: m_LocalScale.z
      value: 1
      objectReference: {fileID: 0}
    m_RemovedComponents: []
  m_SourcePrefab: {fileID: 100100000, guid: 4523de4e8af494a8e879ee7f4b53f5da, type: 3}
--- !u!1 &274825102
GameObject:
  m_ObjectHideFlags: 0
  m_CorrespondingSourceObject: {fileID: 0}
  m_PrefabInstance: {fileID: 0}
  m_PrefabAsset: {fileID: 0}
  serializedVersion: 6
  m_Component:
  - component: {fileID: 274825104}
  - component: {fileID: 274825103}
  m_Layer: 0
  m_Name: Directional Light
  m_TagString: Untagged
  m_Icon: {fileID: 0}
  m_NavMeshLayer: 0
  m_StaticEditorFlags: 0
  m_IsActive: 1
--- !u!108 &274825103
Light:
  m_ObjectHideFlags: 0
  m_CorrespondingSourceObject: {fileID: 0}
  m_PrefabInstance: {fileID: 0}
  m_PrefabAsset: {fileID: 0}
  m_GameObject: {fileID: 274825102}
  m_Enabled: 1
  serializedVersion: 9
  m_Type: 1
  m_Color: {r: 1, g: 0.95686275, b: 0.8392157, a: 1}
  m_Intensity: 1
  m_Range: 10
  m_SpotAngle: 30
  m_InnerSpotAngle: 21.80208
  m_CookieSize: 10
  m_Shadows:
    m_Type: 2
    m_Resolution: -1
    m_CustomResolution: -1
    m_Strength: 0.5
    m_Bias: 0.05
    m_NormalBias: 0.4
    m_NearPlane: 0.2
    m_CullingMatrixOverride:
      e00: 1
      e01: 0
      e02: 0
      e03: 0
      e10: 0
      e11: 1
      e12: 0
      e13: 0
      e20: 0
      e21: 0
      e22: 1
      e23: 0
      e30: 0
      e31: 0
      e32: 0
      e33: 1
    m_UseCullingMatrixOverride: 0
  m_Cookie: {fileID: 0}
  m_DrawHalo: 0
  m_Flare: {fileID: 0}
  m_RenderMode: 0
  m_CullingMask:
    serializedVersion: 2
    m_Bits: 4294967295
  m_RenderingLayerMask: 1
  m_Lightmapping: 4
  m_LightShadowCasterMode: 0
  m_AreaSize: {x: 1, y: 1}
  m_BounceIntensity: 1
  m_ColorTemperature: 6570
  m_UseColorTemperature: 0
  m_BoundingSphereOverride: {x: 0, y: 0, z: 0, w: 0}
  m_UseBoundingSphereOverride: 0
  m_ShadowRadius: 0
  m_ShadowAngle: 0
--- !u!4 &274825104
Transform:
  m_ObjectHideFlags: 0
  m_CorrespondingSourceObject: {fileID: 0}
  m_PrefabInstance: {fileID: 0}
  m_PrefabAsset: {fileID: 0}
  m_GameObject: {fileID: 274825102}
  m_LocalRotation: {x: 0.40821788, y: -0.23456968, z: 0.10938163, w: 0.8754261}
  m_LocalPosition: {x: 0, y: 3, z: 0}
  m_LocalScale: {x: 1, y: 1, z: 1}
  m_Children: []
  m_Father: {fileID: 0}
  m_RootOrder: 0
  m_LocalEulerAnglesHint: {x: 50, y: -30, z: 0}
--- !u!1001 &308140293
PrefabInstance:
  m_ObjectHideFlags: 0
  serializedVersion: 2
  m_Modification:
    m_TransformParent: {fileID: 0}
    m_Modifications:
    - target: {fileID: 4242025528285323700, guid: e4caa8176ba3b4c1e8d5a87aa631e3a0,
        type: 3}
      propertyPath: m_Name
      value: Water (1)
      objectReference: {fileID: 0}
    - target: {fileID: 8882138379518226771, guid: e4caa8176ba3b4c1e8d5a87aa631e3a0,
        type: 3}
      propertyPath: m_LocalPosition.x
      value: 1
      objectReference: {fileID: 0}
    - target: {fileID: 8882138379518226771, guid: e4caa8176ba3b4c1e8d5a87aa631e3a0,
        type: 3}
      propertyPath: m_LocalPosition.y
      value: 0
      objectReference: {fileID: 0}
    - target: {fileID: 8882138379518226771, guid: e4caa8176ba3b4c1e8d5a87aa631e3a0,
        type: 3}
      propertyPath: m_LocalPosition.z
      value: 7
      objectReference: {fileID: 0}
    - target: {fileID: 8882138379518226771, guid: e4caa8176ba3b4c1e8d5a87aa631e3a0,
        type: 3}
      propertyPath: m_LocalRotation.x
      value: 0
      objectReference: {fileID: 0}
    - target: {fileID: 8882138379518226771, guid: e4caa8176ba3b4c1e8d5a87aa631e3a0,
        type: 3}
      propertyPath: m_LocalRotation.y
      value: 0
      objectReference: {fileID: 0}
    - target: {fileID: 8882138379518226771, guid: e4caa8176ba3b4c1e8d5a87aa631e3a0,
        type: 3}
      propertyPath: m_LocalRotation.z
      value: 0
      objectReference: {fileID: 0}
    - target: {fileID: 8882138379518226771, guid: e4caa8176ba3b4c1e8d5a87aa631e3a0,
        type: 3}
      propertyPath: m_LocalRotation.w
      value: 1
      objectReference: {fileID: 0}
    - target: {fileID: 8882138379518226771, guid: e4caa8176ba3b4c1e8d5a87aa631e3a0,
        type: 3}
      propertyPath: m_RootOrder
      value: 7
      objectReference: {fileID: 0}
    - target: {fileID: 8882138379518226771, guid: e4caa8176ba3b4c1e8d5a87aa631e3a0,
        type: 3}
      propertyPath: m_LocalEulerAnglesHint.x
      value: 0
      objectReference: {fileID: 0}
    - target: {fileID: 8882138379518226771, guid: e4caa8176ba3b4c1e8d5a87aa631e3a0,
        type: 3}
      propertyPath: m_LocalEulerAnglesHint.y
      value: 0
      objectReference: {fileID: 0}
    - target: {fileID: 8882138379518226771, guid: e4caa8176ba3b4c1e8d5a87aa631e3a0,
        type: 3}
      propertyPath: m_LocalEulerAnglesHint.z
      value: 0
      objectReference: {fileID: 0}
    - target: {fileID: 8882138379518226771, guid: e4caa8176ba3b4c1e8d5a87aa631e3a0,
        type: 3}
      propertyPath: m_LocalScale.x
      value: 1
      objectReference: {fileID: 0}
    - target: {fileID: 8882138379518226771, guid: e4caa8176ba3b4c1e8d5a87aa631e3a0,
        type: 3}
      propertyPath: m_LocalScale.z
      value: 1
      objectReference: {fileID: 0}
    - target: {fileID: 7021193985524820127, guid: e4caa8176ba3b4c1e8d5a87aa631e3a0,
        type: 3}
      propertyPath: m_IsTrigger
      value: 0
      objectReference: {fileID: 0}
    m_RemovedComponents: []
  m_SourcePrefab: {fileID: 100100000, guid: e4caa8176ba3b4c1e8d5a87aa631e3a0, type: 3}
--- !u!1001 &415739258
PrefabInstance:
  m_ObjectHideFlags: 0
  serializedVersion: 2
  m_Modification:
    m_TransformParent: {fileID: 0}
    m_Modifications:
    - target: {fileID: 2869952636615049436, guid: 2de006cbe1dcf4b27819c6516fc8cf92,
        type: 3}
      propertyPath: m_Name
      value: Walking
      objectReference: {fileID: 0}
    - target: {fileID: 2869952636615049432, guid: 2de006cbe1dcf4b27819c6516fc8cf92,
        type: 3}
      propertyPath: m_LocalPosition.x
      value: -1.87
      objectReference: {fileID: 0}
    - target: {fileID: 2869952636615049432, guid: 2de006cbe1dcf4b27819c6516fc8cf92,
        type: 3}
      propertyPath: m_LocalPosition.y
      value: 0.005000001
      objectReference: {fileID: 0}
    - target: {fileID: 2869952636615049432, guid: 2de006cbe1dcf4b27819c6516fc8cf92,
        type: 3}
      propertyPath: m_LocalPosition.z
      value: 9.22
      objectReference: {fileID: 0}
    - target: {fileID: 2869952636615049432, guid: 2de006cbe1dcf4b27819c6516fc8cf92,
        type: 3}
      propertyPath: m_LocalRotation.x
      value: 0
      objectReference: {fileID: 0}
    - target: {fileID: 2869952636615049432, guid: 2de006cbe1dcf4b27819c6516fc8cf92,
        type: 3}
      propertyPath: m_LocalRotation.y
      value: 1
      objectReference: {fileID: 0}
    - target: {fileID: 2869952636615049432, guid: 2de006cbe1dcf4b27819c6516fc8cf92,
        type: 3}
      propertyPath: m_LocalRotation.z
      value: 0
      objectReference: {fileID: 0}
    - target: {fileID: 2869952636615049432, guid: 2de006cbe1dcf4b27819c6516fc8cf92,
        type: 3}
      propertyPath: m_LocalRotation.w
      value: 0
      objectReference: {fileID: 0}
    - target: {fileID: 2869952636615049432, guid: 2de006cbe1dcf4b27819c6516fc8cf92,
        type: 3}
      propertyPath: m_RootOrder
      value: 1
      objectReference: {fileID: 0}
    - target: {fileID: 2869952636615049432, guid: 2de006cbe1dcf4b27819c6516fc8cf92,
        type: 3}
      propertyPath: m_LocalEulerAnglesHint.x
      value: 0
      objectReference: {fileID: 0}
    - target: {fileID: 2869952636615049432, guid: 2de006cbe1dcf4b27819c6516fc8cf92,
        type: 3}
      propertyPath: m_LocalEulerAnglesHint.y
      value: 180
      objectReference: {fileID: 0}
    - target: {fileID: 2869952636615049432, guid: 2de006cbe1dcf4b27819c6516fc8cf92,
        type: 3}
      propertyPath: m_LocalEulerAnglesHint.z
      value: 0
      objectReference: {fileID: 0}
    m_RemovedComponents: []
  m_SourcePrefab: {fileID: 100100000, guid: 2de006cbe1dcf4b27819c6516fc8cf92, type: 3}
--- !u!1001 &540563226
PrefabInstance:
  m_ObjectHideFlags: 0
  serializedVersion: 2
  m_Modification:
    m_TransformParent: {fileID: 0}
    m_Modifications:
    - target: {fileID: 541086448501739023, guid: 4523de4e8af494a8e879ee7f4b53f5da,
        type: 3}
      propertyPath: m_Name
      value: Wall (6)
      objectReference: {fileID: 0}
    - target: {fileID: 541086448501739009, guid: 4523de4e8af494a8e879ee7f4b53f5da,
        type: 3}
      propertyPath: m_LocalPosition.x
      value: 0
      objectReference: {fileID: 0}
    - target: {fileID: 541086448501739009, guid: 4523de4e8af494a8e879ee7f4b53f5da,
        type: 3}
      propertyPath: m_LocalPosition.y
      value: 0
      objectReference: {fileID: 0}
    - target: {fileID: 541086448501739009, guid: 4523de4e8af494a8e879ee7f4b53f5da,
        type: 3}
      propertyPath: m_LocalPosition.z
      value: 16
      objectReference: {fileID: 0}
    - target: {fileID: 541086448501739009, guid: 4523de4e8af494a8e879ee7f4b53f5da,
        type: 3}
      propertyPath: m_LocalRotation.x
      value: 0
      objectReference: {fileID: 0}
    - target: {fileID: 541086448501739009, guid: 4523de4e8af494a8e879ee7f4b53f5da,
        type: 3}
      propertyPath: m_LocalRotation.y
      value: 0
      objectReference: {fileID: 0}
    - target: {fileID: 541086448501739009, guid: 4523de4e8af494a8e879ee7f4b53f5da,
        type: 3}
      propertyPath: m_LocalRotation.z
      value: 0
      objectReference: {fileID: 0}
    - target: {fileID: 541086448501739009, guid: 4523de4e8af494a8e879ee7f4b53f5da,
        type: 3}
      propertyPath: m_LocalRotation.w
      value: 1
      objectReference: {fileID: 0}
    - target: {fileID: 541086448501739009, guid: 4523de4e8af494a8e879ee7f4b53f5da,
        type: 3}
      propertyPath: m_RootOrder
      value: 15
      objectReference: {fileID: 0}
    - target: {fileID: 541086448501739009, guid: 4523de4e8af494a8e879ee7f4b53f5da,
        type: 3}
      propertyPath: m_LocalEulerAnglesHint.x
      value: 0
      objectReference: {fileID: 0}
    - target: {fileID: 541086448501739009, guid: 4523de4e8af494a8e879ee7f4b53f5da,
        type: 3}
      propertyPath: m_LocalEulerAnglesHint.y
      value: 0
      objectReference: {fileID: 0}
    - target: {fileID: 541086448501739009, guid: 4523de4e8af494a8e879ee7f4b53f5da,
        type: 3}
      propertyPath: m_LocalEulerAnglesHint.z
      value: 0
      objectReference: {fileID: 0}
    - target: {fileID: 541086448501739009, guid: 4523de4e8af494a8e879ee7f4b53f5da,
        type: 3}
      propertyPath: m_LocalScale.x
      value: 1
      objectReference: {fileID: 0}
    - target: {fileID: 541086448501739009, guid: 4523de4e8af494a8e879ee7f4b53f5da,
        type: 3}
      propertyPath: m_LocalScale.z
      value: 1
      objectReference: {fileID: 0}
    m_RemovedComponents: []
  m_SourcePrefab: {fileID: 100100000, guid: 4523de4e8af494a8e879ee7f4b53f5da, type: 3}
--- !u!1001 &594539798
PrefabInstance:
  m_ObjectHideFlags: 0
  serializedVersion: 2
  m_Modification:
    m_TransformParent: {fileID: 0}
    m_Modifications:
    - target: {fileID: 541086448501739023, guid: 4523de4e8af494a8e879ee7f4b53f5da,
        type: 3}
      propertyPath: m_Name
      value: Wall (8)
      objectReference: {fileID: 0}
    - target: {fileID: 541086448501739009, guid: 4523de4e8af494a8e879ee7f4b53f5da,
        type: 3}
      propertyPath: m_LocalPosition.x
      value: 2
      objectReference: {fileID: 0}
    - target: {fileID: 541086448501739009, guid: 4523de4e8af494a8e879ee7f4b53f5da,
        type: 3}
      propertyPath: m_LocalPosition.y
      value: 0
      objectReference: {fileID: 0}
    - target: {fileID: 541086448501739009, guid: 4523de4e8af494a8e879ee7f4b53f5da,
        type: 3}
      propertyPath: m_LocalPosition.z
      value: 16
      objectReference: {fileID: 0}
    - target: {fileID: 541086448501739009, guid: 4523de4e8af494a8e879ee7f4b53f5da,
        type: 3}
      propertyPath: m_LocalRotation.x
      value: 0
      objectReference: {fileID: 0}
    - target: {fileID: 541086448501739009, guid: 4523de4e8af494a8e879ee7f4b53f5da,
        type: 3}
      propertyPath: m_LocalRotation.y
      value: 0
      objectReference: {fileID: 0}
    - target: {fileID: 541086448501739009, guid: 4523de4e8af494a8e879ee7f4b53f5da,
        type: 3}
      propertyPath: m_LocalRotation.z
      value: 0
      objectReference: {fileID: 0}
    - target: {fileID: 541086448501739009, guid: 4523de4e8af494a8e879ee7f4b53f5da,
        type: 3}
      propertyPath: m_LocalRotation.w
      value: 1
      objectReference: {fileID: 0}
    - target: {fileID: 541086448501739009, guid: 4523de4e8af494a8e879ee7f4b53f5da,
        type: 3}
      propertyPath: m_RootOrder
      value: 17
      objectReference: {fileID: 0}
    - target: {fileID: 541086448501739009, guid: 4523de4e8af494a8e879ee7f4b53f5da,
        type: 3}
      propertyPath: m_LocalEulerAnglesHint.x
      value: 0
      objectReference: {fileID: 0}
    - target: {fileID: 541086448501739009, guid: 4523de4e8af494a8e879ee7f4b53f5da,
        type: 3}
      propertyPath: m_LocalEulerAnglesHint.y
      value: 0
      objectReference: {fileID: 0}
    - target: {fileID: 541086448501739009, guid: 4523de4e8af494a8e879ee7f4b53f5da,
        type: 3}
      propertyPath: m_LocalEulerAnglesHint.z
      value: 0
      objectReference: {fileID: 0}
    - target: {fileID: 541086448501739009, guid: 4523de4e8af494a8e879ee7f4b53f5da,
        type: 3}
      propertyPath: m_LocalScale.x
      value: 1
      objectReference: {fileID: 0}
    - target: {fileID: 541086448501739009, guid: 4523de4e8af494a8e879ee7f4b53f5da,
        type: 3}
      propertyPath: m_LocalScale.z
      value: 1
      objectReference: {fileID: 0}
    m_RemovedComponents: []
  m_SourcePrefab: {fileID: 100100000, guid: 4523de4e8af494a8e879ee7f4b53f5da, type: 3}
--- !u!1001 &634549281
PrefabInstance:
  m_ObjectHideFlags: 0
  serializedVersion: 2
  m_Modification:
    m_TransformParent: {fileID: 0}
    m_Modifications:
    - target: {fileID: 4242025528285323700, guid: e373ed4fc408e421fac3ea818b70ee65,
        type: 3}
      propertyPath: m_Name
      value: Thorn (1)
      objectReference: {fileID: 0}
    - target: {fileID: 8882138379518226771, guid: e373ed4fc408e421fac3ea818b70ee65,
        type: 3}
      propertyPath: m_LocalPosition.x
      value: -3
      objectReference: {fileID: 0}
    - target: {fileID: 8882138379518226771, guid: e373ed4fc408e421fac3ea818b70ee65,
        type: 3}
      propertyPath: m_LocalPosition.y
      value: 0
      objectReference: {fileID: 0}
    - target: {fileID: 8882138379518226771, guid: e373ed4fc408e421fac3ea818b70ee65,
        type: 3}
      propertyPath: m_LocalPosition.z
      value: 8
      objectReference: {fileID: 0}
    - target: {fileID: 8882138379518226771, guid: e373ed4fc408e421fac3ea818b70ee65,
        type: 3}
      propertyPath: m_LocalRotation.x
      value: 0
      objectReference: {fileID: 0}
    - target: {fileID: 8882138379518226771, guid: e373ed4fc408e421fac3ea818b70ee65,
        type: 3}
      propertyPath: m_LocalRotation.y
      value: 0
      objectReference: {fileID: 0}
    - target: {fileID: 8882138379518226771, guid: e373ed4fc408e421fac3ea818b70ee65,
        type: 3}
      propertyPath: m_LocalRotation.z
      value: 0
      objectReference: {fileID: 0}
    - target: {fileID: 8882138379518226771, guid: e373ed4fc408e421fac3ea818b70ee65,
        type: 3}
      propertyPath: m_LocalRotation.w
      value: 1
      objectReference: {fileID: 0}
    - target: {fileID: 8882138379518226771, guid: e373ed4fc408e421fac3ea818b70ee65,
        type: 3}
      propertyPath: m_RootOrder
      value: 9
      objectReference: {fileID: 0}
    - target: {fileID: 8882138379518226771, guid: e373ed4fc408e421fac3ea818b70ee65,
        type: 3}
      propertyPath: m_LocalEulerAnglesHint.x
      value: 0
      objectReference: {fileID: 0}
    - target: {fileID: 8882138379518226771, guid: e373ed4fc408e421fac3ea818b70ee65,
        type: 3}
      propertyPath: m_LocalEulerAnglesHint.y
      value: 0
      objectReference: {fileID: 0}
    - target: {fileID: 8882138379518226771, guid: e373ed4fc408e421fac3ea818b70ee65,
        type: 3}
      propertyPath: m_LocalEulerAnglesHint.z
      value: 0
      objectReference: {fileID: 0}
    m_RemovedComponents: []
  m_SourcePrefab: {fileID: 100100000, guid: e373ed4fc408e421fac3ea818b70ee65, type: 3}
--- !u!1001 &700357894
PrefabInstance:
  m_ObjectHideFlags: 0
  serializedVersion: 2
  m_Modification:
    m_TransformParent: {fileID: 0}
    m_Modifications:
    - target: {fileID: 4242025528285323700, guid: e4caa8176ba3b4c1e8d5a87aa631e3a0,
        type: 3}
      propertyPath: m_Name
      value: Water (7)
      objectReference: {fileID: 0}
    - target: {fileID: 8882138379518226771, guid: e4caa8176ba3b4c1e8d5a87aa631e3a0,
        type: 3}
      propertyPath: m_LocalPosition.x
      value: 1
      objectReference: {fileID: 0}
    - target: {fileID: 8882138379518226771, guid: e4caa8176ba3b4c1e8d5a87aa631e3a0,
        type: 3}
      propertyPath: m_LocalPosition.y
      value: 0
      objectReference: {fileID: 0}
    - target: {fileID: 8882138379518226771, guid: e4caa8176ba3b4c1e8d5a87aa631e3a0,
        type: 3}
      propertyPath: m_LocalPosition.z
      value: 5
      objectReference: {fileID: 0}
    - target: {fileID: 8882138379518226771, guid: e4caa8176ba3b4c1e8d5a87aa631e3a0,
        type: 3}
      propertyPath: m_LocalRotation.x
      value: 0
      objectReference: {fileID: 0}
    - target: {fileID: 8882138379518226771, guid: e4caa8176ba3b4c1e8d5a87aa631e3a0,
        type: 3}
      propertyPath: m_LocalRotation.y
      value: 0
      objectReference: {fileID: 0}
    - target: {fileID: 8882138379518226771, guid: e4caa8176ba3b4c1e8d5a87aa631e3a0,
        type: 3}
      propertyPath: m_LocalRotation.z
      value: 0
      objectReference: {fileID: 0}
    - target: {fileID: 8882138379518226771, guid: e4caa8176ba3b4c1e8d5a87aa631e3a0,
        type: 3}
      propertyPath: m_LocalRotation.w
      value: 1
      objectReference: {fileID: 0}
    - target: {fileID: 8882138379518226771, guid: e4caa8176ba3b4c1e8d5a87aa631e3a0,
        type: 3}
      propertyPath: m_RootOrder
      value: 27
      objectReference: {fileID: 0}
    - target: {fileID: 8882138379518226771, guid: e4caa8176ba3b4c1e8d5a87aa631e3a0,
        type: 3}
      propertyPath: m_LocalEulerAnglesHint.x
      value: 0
      objectReference: {fileID: 0}
    - target: {fileID: 8882138379518226771, guid: e4caa8176ba3b4c1e8d5a87aa631e3a0,
        type: 3}
      propertyPath: m_LocalEulerAnglesHint.y
      value: 0
      objectReference: {fileID: 0}
    - target: {fileID: 8882138379518226771, guid: e4caa8176ba3b4c1e8d5a87aa631e3a0,
        type: 3}
      propertyPath: m_LocalEulerAnglesHint.z
      value: 0
      objectReference: {fileID: 0}
    - target: {fileID: 8882138379518226771, guid: e4caa8176ba3b4c1e8d5a87aa631e3a0,
        type: 3}
      propertyPath: m_LocalScale.x
      value: 1
      objectReference: {fileID: 0}
    - target: {fileID: 8882138379518226771, guid: e4caa8176ba3b4c1e8d5a87aa631e3a0,
        type: 3}
      propertyPath: m_LocalScale.z
      value: 1
      objectReference: {fileID: 0}
    - target: {fileID: 7021193985524820127, guid: e4caa8176ba3b4c1e8d5a87aa631e3a0,
        type: 3}
      propertyPath: m_IsTrigger
      value: 0
      objectReference: {fileID: 0}
    m_RemovedComponents: []
  m_SourcePrefab: {fileID: 100100000, guid: e4caa8176ba3b4c1e8d5a87aa631e3a0, type: 3}
--- !u!1001 &740717054
PrefabInstance:
  m_ObjectHideFlags: 0
  serializedVersion: 2
  m_Modification:
    m_TransformParent: {fileID: 0}
    m_Modifications:
    - target: {fileID: 541086448501739023, guid: 4523de4e8af494a8e879ee7f4b53f5da,
        type: 3}
      propertyPath: m_Name
      value: Wall (2)
      objectReference: {fileID: 0}
    - target: {fileID: 541086448501739009, guid: 4523de4e8af494a8e879ee7f4b53f5da,
        type: 3}
      propertyPath: m_LocalPosition.x
      value: 2
      objectReference: {fileID: 0}
    - target: {fileID: 541086448501739009, guid: 4523de4e8af494a8e879ee7f4b53f5da,
        type: 3}
      propertyPath: m_LocalPosition.y
      value: 0
      objectReference: {fileID: 0}
    - target: {fileID: 541086448501739009, guid: 4523de4e8af494a8e879ee7f4b53f5da,
        type: 3}
      propertyPath: m_LocalPosition.z
      value: 9
      objectReference: {fileID: 0}
    - target: {fileID: 541086448501739009, guid: 4523de4e8af494a8e879ee7f4b53f5da,
        type: 3}
      propertyPath: m_LocalRotation.x
      value: 0
      objectReference: {fileID: 0}
    - target: {fileID: 541086448501739009, guid: 4523de4e8af494a8e879ee7f4b53f5da,
        type: 3}
      propertyPath: m_LocalRotation.y
      value: 0
      objectReference: {fileID: 0}
    - target: {fileID: 541086448501739009, guid: 4523de4e8af494a8e879ee7f4b53f5da,
        type: 3}
      propertyPath: m_LocalRotation.z
      value: 0
      objectReference: {fileID: 0}
    - target: {fileID: 541086448501739009, guid: 4523de4e8af494a8e879ee7f4b53f5da,
        type: 3}
      propertyPath: m_LocalRotation.w
      value: 1
      objectReference: {fileID: 0}
    - target: {fileID: 541086448501739009, guid: 4523de4e8af494a8e879ee7f4b53f5da,
        type: 3}
      propertyPath: m_RootOrder
      value: 11
      objectReference: {fileID: 0}
    - target: {fileID: 541086448501739009, guid: 4523de4e8af494a8e879ee7f4b53f5da,
        type: 3}
      propertyPath: m_LocalEulerAnglesHint.x
      value: 0
      objectReference: {fileID: 0}
    - target: {fileID: 541086448501739009, guid: 4523de4e8af494a8e879ee7f4b53f5da,
        type: 3}
      propertyPath: m_LocalEulerAnglesHint.y
      value: 0
      objectReference: {fileID: 0}
    - target: {fileID: 541086448501739009, guid: 4523de4e8af494a8e879ee7f4b53f5da,
        type: 3}
      propertyPath: m_LocalEulerAnglesHint.z
      value: 0
      objectReference: {fileID: 0}
    - target: {fileID: 541086448501739009, guid: 4523de4e8af494a8e879ee7f4b53f5da,
        type: 3}
      propertyPath: m_LocalScale.x
      value: 1
      objectReference: {fileID: 0}
    - target: {fileID: 541086448501739009, guid: 4523de4e8af494a8e879ee7f4b53f5da,
        type: 3}
      propertyPath: m_LocalScale.z
      value: 1
      objectReference: {fileID: 0}
    m_RemovedComponents: []
  m_SourcePrefab: {fileID: 100100000, guid: 4523de4e8af494a8e879ee7f4b53f5da, type: 3}
--- !u!1001 &780126359
PrefabInstance:
  m_ObjectHideFlags: 0
  serializedVersion: 2
  m_Modification:
    m_TransformParent: {fileID: 0}
    m_Modifications:
    - target: {fileID: 541086448501739023, guid: 4523de4e8af494a8e879ee7f4b53f5da,
        type: 3}
      propertyPath: m_Name
      value: Wall (11)
      objectReference: {fileID: 0}
    - target: {fileID: 541086448501739009, guid: 4523de4e8af494a8e879ee7f4b53f5da,
        type: 3}
      propertyPath: m_LocalPosition.x
      value: 0
      objectReference: {fileID: 0}
    - target: {fileID: 541086448501739009, guid: 4523de4e8af494a8e879ee7f4b53f5da,
        type: 3}
      propertyPath: m_LocalPosition.y
      value: 0
      objectReference: {fileID: 0}
    - target: {fileID: 541086448501739009, guid: 4523de4e8af494a8e879ee7f4b53f5da,
        type: 3}
      propertyPath: m_LocalPosition.z
      value: 3
      objectReference: {fileID: 0}
    - target: {fileID: 541086448501739009, guid: 4523de4e8af494a8e879ee7f4b53f5da,
        type: 3}
      propertyPath: m_LocalRotation.x
      value: 0
      objectReference: {fileID: 0}
    - target: {fileID: 541086448501739009, guid: 4523de4e8af494a8e879ee7f4b53f5da,
        type: 3}
      propertyPath: m_LocalRotation.y
      value: 0
      objectReference: {fileID: 0}
    - target: {fileID: 541086448501739009, guid: 4523de4e8af494a8e879ee7f4b53f5da,
        type: 3}
      propertyPath: m_LocalRotation.z
      value: 0
      objectReference: {fileID: 0}
    - target: {fileID: 541086448501739009, guid: 4523de4e8af494a8e879ee7f4b53f5da,
        type: 3}
      propertyPath: m_LocalRotation.w
      value: 1
      objectReference: {fileID: 0}
    - target: {fileID: 541086448501739009, guid: 4523de4e8af494a8e879ee7f4b53f5da,
        type: 3}
      propertyPath: m_RootOrder
      value: 25
      objectReference: {fileID: 0}
    - target: {fileID: 541086448501739009, guid: 4523de4e8af494a8e879ee7f4b53f5da,
        type: 3}
      propertyPath: m_LocalEulerAnglesHint.x
      value: 0
      objectReference: {fileID: 0}
    - target: {fileID: 541086448501739009, guid: 4523de4e8af494a8e879ee7f4b53f5da,
        type: 3}
      propertyPath: m_LocalEulerAnglesHint.y
      value: 0
      objectReference: {fileID: 0}
    - target: {fileID: 541086448501739009, guid: 4523de4e8af494a8e879ee7f4b53f5da,
        type: 3}
      propertyPath: m_LocalEulerAnglesHint.z
      value: 0
      objectReference: {fileID: 0}
    - target: {fileID: 541086448501739009, guid: 4523de4e8af494a8e879ee7f4b53f5da,
        type: 3}
      propertyPath: m_LocalScale.x
      value: 1
      objectReference: {fileID: 0}
    - target: {fileID: 541086448501739009, guid: 4523de4e8af494a8e879ee7f4b53f5da,
        type: 3}
      propertyPath: m_LocalScale.z
      value: 1
      objectReference: {fileID: 0}
    m_RemovedComponents: []
  m_SourcePrefab: {fileID: 100100000, guid: 4523de4e8af494a8e879ee7f4b53f5da, type: 3}
--- !u!1001 &900832730
PrefabInstance:
  m_ObjectHideFlags: 0
  serializedVersion: 2
  m_Modification:
    m_TransformParent: {fileID: 0}
    m_Modifications:
    - target: {fileID: 4242025528285323700, guid: e373ed4fc408e421fac3ea818b70ee65,
        type: 3}
      propertyPath: m_Name
      value: Thorn
      objectReference: {fileID: 0}
    - target: {fileID: 8882138379518226771, guid: e373ed4fc408e421fac3ea818b70ee65,
        type: 3}
      propertyPath: m_LocalPosition.x
      value: -3
      objectReference: {fileID: 0}
    - target: {fileID: 8882138379518226771, guid: e373ed4fc408e421fac3ea818b70ee65,
        type: 3}
      propertyPath: m_LocalPosition.y
      value: 0
      objectReference: {fileID: 0}
    - target: {fileID: 8882138379518226771, guid: e373ed4fc408e421fac3ea818b70ee65,
        type: 3}
      propertyPath: m_LocalPosition.z
      value: 7
      objectReference: {fileID: 0}
    - target: {fileID: 8882138379518226771, guid: e373ed4fc408e421fac3ea818b70ee65,
        type: 3}
      propertyPath: m_LocalRotation.x
      value: 0
      objectReference: {fileID: 0}
    - target: {fileID: 8882138379518226771, guid: e373ed4fc408e421fac3ea818b70ee65,
        type: 3}
      propertyPath: m_LocalRotation.y
      value: 0
      objectReference: {fileID: 0}
    - target: {fileID: 8882138379518226771, guid: e373ed4fc408e421fac3ea818b70ee65,
        type: 3}
      propertyPath: m_LocalRotation.z
      value: 0
      objectReference: {fileID: 0}
    - target: {fileID: 8882138379518226771, guid: e373ed4fc408e421fac3ea818b70ee65,
        type: 3}
      propertyPath: m_LocalRotation.w
      value: 1
      objectReference: {fileID: 0}
    - target: {fileID: 8882138379518226771, guid: e373ed4fc408e421fac3ea818b70ee65,
        type: 3}
      propertyPath: m_RootOrder
      value: 4
      objectReference: {fileID: 0}
    - target: {fileID: 8882138379518226771, guid: e373ed4fc408e421fac3ea818b70ee65,
        type: 3}
      propertyPath: m_LocalEulerAnglesHint.x
      value: 0
      objectReference: {fileID: 0}
    - target: {fileID: 8882138379518226771, guid: e373ed4fc408e421fac3ea818b70ee65,
        type: 3}
      propertyPath: m_LocalEulerAnglesHint.y
      value: 0
      objectReference: {fileID: 0}
    - target: {fileID: 8882138379518226771, guid: e373ed4fc408e421fac3ea818b70ee65,
        type: 3}
      propertyPath: m_LocalEulerAnglesHint.z
      value: 0
      objectReference: {fileID: 0}
    m_RemovedComponents: []
  m_SourcePrefab: {fileID: 100100000, guid: e373ed4fc408e421fac3ea818b70ee65, type: 3}
--- !u!1001 &938407185
PrefabInstance:
  m_ObjectHideFlags: 0
  serializedVersion: 2
  m_Modification:
    m_TransformParent: {fileID: 0}
    m_Modifications:
    - target: {fileID: 4242025528285323700, guid: e4caa8176ba3b4c1e8d5a87aa631e3a0,
        type: 3}
      propertyPath: m_Name
      value: Water
      objectReference: {fileID: 0}
    - target: {fileID: 8882138379518226771, guid: e4caa8176ba3b4c1e8d5a87aa631e3a0,
        type: 3}
      propertyPath: m_LocalPosition.x
      value: 0
      objectReference: {fileID: 0}
    - target: {fileID: 8882138379518226771, guid: e4caa8176ba3b4c1e8d5a87aa631e3a0,
        type: 3}
      propertyPath: m_LocalPosition.y
      value: 0
      objectReference: {fileID: 0}
    - target: {fileID: 8882138379518226771, guid: e4caa8176ba3b4c1e8d5a87aa631e3a0,
        type: 3}
      propertyPath: m_LocalPosition.z
      value: 7
      objectReference: {fileID: 0}
    - target: {fileID: 8882138379518226771, guid: e4caa8176ba3b4c1e8d5a87aa631e3a0,
        type: 3}
      propertyPath: m_LocalRotation.x
      value: 0
      objectReference: {fileID: 0}
    - target: {fileID: 8882138379518226771, guid: e4caa8176ba3b4c1e8d5a87aa631e3a0,
        type: 3}
      propertyPath: m_LocalRotation.y
      value: 0
      objectReference: {fileID: 0}
    - target: {fileID: 8882138379518226771, guid: e4caa8176ba3b4c1e8d5a87aa631e3a0,
        type: 3}
      propertyPath: m_LocalRotation.z
      value: 0
      objectReference: {fileID: 0}
    - target: {fileID: 8882138379518226771, guid: e4caa8176ba3b4c1e8d5a87aa631e3a0,
        type: 3}
      propertyPath: m_LocalRotation.w
      value: 1
      objectReference: {fileID: 0}
    - target: {fileID: 8882138379518226771, guid: e4caa8176ba3b4c1e8d5a87aa631e3a0,
        type: 3}
      propertyPath: m_RootOrder
      value: 5
      objectReference: {fileID: 0}
    - target: {fileID: 8882138379518226771, guid: e4caa8176ba3b4c1e8d5a87aa631e3a0,
        type: 3}
      propertyPath: m_LocalEulerAnglesHint.x
      value: 0
      objectReference: {fileID: 0}
    - target: {fileID: 8882138379518226771, guid: e4caa8176ba3b4c1e8d5a87aa631e3a0,
        type: 3}
      propertyPath: m_LocalEulerAnglesHint.y
      value: 0
      objectReference: {fileID: 0}
    - target: {fileID: 8882138379518226771, guid: e4caa8176ba3b4c1e8d5a87aa631e3a0,
        type: 3}
      propertyPath: m_LocalEulerAnglesHint.z
      value: 0
      objectReference: {fileID: 0}
    - target: {fileID: 8882138379518226771, guid: e4caa8176ba3b4c1e8d5a87aa631e3a0,
        type: 3}
      propertyPath: m_LocalScale.x
      value: 1
      objectReference: {fileID: 0}
    - target: {fileID: 8882138379518226771, guid: e4caa8176ba3b4c1e8d5a87aa631e3a0,
        type: 3}
      propertyPath: m_LocalScale.z
      value: 1
      objectReference: {fileID: 0}
    - target: {fileID: 7021193985524820127, guid: e4caa8176ba3b4c1e8d5a87aa631e3a0,
        type: 3}
      propertyPath: m_IsTrigger
      value: 0
      objectReference: {fileID: 0}
    m_RemovedComponents: []
  m_SourcePrefab: {fileID: 100100000, guid: e4caa8176ba3b4c1e8d5a87aa631e3a0, type: 3}
--- !u!1001 &1183773640
PrefabInstance:
  m_ObjectHideFlags: 0
  serializedVersion: 2
  m_Modification:
    m_TransformParent: {fileID: 0}
    m_Modifications:
    - target: {fileID: 4242025528285323700, guid: e4caa8176ba3b4c1e8d5a87aa631e3a0,
        type: 3}
      propertyPath: m_Name
      value: Water (6)
      objectReference: {fileID: 0}
    - target: {fileID: 8882138379518226771, guid: e4caa8176ba3b4c1e8d5a87aa631e3a0,
        type: 3}
      propertyPath: m_LocalPosition.x
      value: 0
      objectReference: {fileID: 0}
    - target: {fileID: 8882138379518226771, guid: e4caa8176ba3b4c1e8d5a87aa631e3a0,
        type: 3}
      propertyPath: m_LocalPosition.y
      value: 0
      objectReference: {fileID: 0}
    - target: {fileID: 8882138379518226771, guid: e4caa8176ba3b4c1e8d5a87aa631e3a0,
        type: 3}
      propertyPath: m_LocalPosition.z
      value: 5
      objectReference: {fileID: 0}
    - target: {fileID: 8882138379518226771, guid: e4caa8176ba3b4c1e8d5a87aa631e3a0,
        type: 3}
      propertyPath: m_LocalRotation.x
      value: 0
      objectReference: {fileID: 0}
    - target: {fileID: 8882138379518226771, guid: e4caa8176ba3b4c1e8d5a87aa631e3a0,
        type: 3}
      propertyPath: m_LocalRotation.y
      value: 0
      objectReference: {fileID: 0}
    - target: {fileID: 8882138379518226771, guid: e4caa8176ba3b4c1e8d5a87aa631e3a0,
        type: 3}
      propertyPath: m_LocalRotation.z
      value: 0
      objectReference: {fileID: 0}
    - target: {fileID: 8882138379518226771, guid: e4caa8176ba3b4c1e8d5a87aa631e3a0,
        type: 3}
      propertyPath: m_LocalRotation.w
      value: 1
      objectReference: {fileID: 0}
    - target: {fileID: 8882138379518226771, guid: e4caa8176ba3b4c1e8d5a87aa631e3a0,
        type: 3}
      propertyPath: m_RootOrder
      value: 26
      objectReference: {fileID: 0}
    - target: {fileID: 8882138379518226771, guid: e4caa8176ba3b4c1e8d5a87aa631e3a0,
        type: 3}
      propertyPath: m_LocalEulerAnglesHint.x
      value: 0
      objectReference: {fileID: 0}
    - target: {fileID: 8882138379518226771, guid: e4caa8176ba3b4c1e8d5a87aa631e3a0,
        type: 3}
      propertyPath: m_LocalEulerAnglesHint.y
      value: 0
      objectReference: {fileID: 0}
    - target: {fileID: 8882138379518226771, guid: e4caa8176ba3b4c1e8d5a87aa631e3a0,
        type: 3}
      propertyPath: m_LocalEulerAnglesHint.z
      value: 0
      objectReference: {fileID: 0}
    - target: {fileID: 8882138379518226771, guid: e4caa8176ba3b4c1e8d5a87aa631e3a0,
        type: 3}
      propertyPath: m_LocalScale.x
      value: 1
      objectReference: {fileID: 0}
    - target: {fileID: 8882138379518226771, guid: e4caa8176ba3b4c1e8d5a87aa631e3a0,
        type: 3}
      propertyPath: m_LocalScale.z
      value: 1
      objectReference: {fileID: 0}
    - target: {fileID: 7021193985524820127, guid: e4caa8176ba3b4c1e8d5a87aa631e3a0,
        type: 3}
      propertyPath: m_IsTrigger
      value: 0
      objectReference: {fileID: 0}
    m_RemovedComponents: []
  m_SourcePrefab: {fileID: 100100000, guid: e4caa8176ba3b4c1e8d5a87aa631e3a0, type: 3}
--- !u!1001 &1198136915
PrefabInstance:
  m_ObjectHideFlags: 0
  serializedVersion: 2
  m_Modification:
    m_TransformParent: {fileID: 0}
    m_Modifications:
    - target: {fileID: 4242025528285323700, guid: e4caa8176ba3b4c1e8d5a87aa631e3a0,
        type: 3}
      propertyPath: m_Name
      value: Water (5)
      objectReference: {fileID: 0}
    - target: {fileID: 8882138379518226771, guid: e4caa8176ba3b4c1e8d5a87aa631e3a0,
        type: 3}
      propertyPath: m_LocalPosition.x
      value: -2
      objectReference: {fileID: 0}
    - target: {fileID: 8882138379518226771, guid: e4caa8176ba3b4c1e8d5a87aa631e3a0,
        type: 3}
      propertyPath: m_LocalPosition.y
      value: 0
      objectReference: {fileID: 0}
    - target: {fileID: 8882138379518226771, guid: e4caa8176ba3b4c1e8d5a87aa631e3a0,
        type: 3}
      propertyPath: m_LocalPosition.z
      value: 14
      objectReference: {fileID: 0}
    - target: {fileID: 8882138379518226771, guid: e4caa8176ba3b4c1e8d5a87aa631e3a0,
        type: 3}
      propertyPath: m_LocalRotation.x
      value: 0
      objectReference: {fileID: 0}
    - target: {fileID: 8882138379518226771, guid: e4caa8176ba3b4c1e8d5a87aa631e3a0,
        type: 3}
      propertyPath: m_LocalRotation.y
      value: 0
      objectReference: {fileID: 0}
    - target: {fileID: 8882138379518226771, guid: e4caa8176ba3b4c1e8d5a87aa631e3a0,
        type: 3}
      propertyPath: m_LocalRotation.z
      value: 0
      objectReference: {fileID: 0}
    - target: {fileID: 8882138379518226771, guid: e4caa8176ba3b4c1e8d5a87aa631e3a0,
        type: 3}
      propertyPath: m_LocalRotation.w
      value: 1
      objectReference: {fileID: 0}
    - target: {fileID: 8882138379518226771, guid: e4caa8176ba3b4c1e8d5a87aa631e3a0,
        type: 3}
      propertyPath: m_RootOrder
      value: 20
      objectReference: {fileID: 0}
    - target: {fileID: 8882138379518226771, guid: e4caa8176ba3b4c1e8d5a87aa631e3a0,
        type: 3}
      propertyPath: m_LocalEulerAnglesHint.x
      value: 0
      objectReference: {fileID: 0}
    - target: {fileID: 8882138379518226771, guid: e4caa8176ba3b4c1e8d5a87aa631e3a0,
        type: 3}
      propertyPath: m_LocalEulerAnglesHint.y
      value: 0
      objectReference: {fileID: 0}
    - target: {fileID: 8882138379518226771, guid: e4caa8176ba3b4c1e8d5a87aa631e3a0,
        type: 3}
      propertyPath: m_LocalEulerAnglesHint.z
      value: 0
      objectReference: {fileID: 0}
    - target: {fileID: 8882138379518226771, guid: e4caa8176ba3b4c1e8d5a87aa631e3a0,
        type: 3}
      propertyPath: m_LocalScale.x
      value: 1
      objectReference: {fileID: 0}
    - target: {fileID: 8882138379518226771, guid: e4caa8176ba3b4c1e8d5a87aa631e3a0,
        type: 3}
      propertyPath: m_LocalScale.z
      value: 1
      objectReference: {fileID: 0}
    - target: {fileID: 7021193985524820127, guid: e4caa8176ba3b4c1e8d5a87aa631e3a0,
        type: 3}
      propertyPath: m_IsTrigger
      value: 0
      objectReference: {fileID: 0}
    m_RemovedComponents: []
  m_SourcePrefab: {fileID: 100100000, guid: e4caa8176ba3b4c1e8d5a87aa631e3a0, type: 3}
--- !u!1001 &1290734397
PrefabInstance:
  m_ObjectHideFlags: 0
  serializedVersion: 2
  m_Modification:
    m_TransformParent: {fileID: 0}
    m_Modifications:
    - target: {fileID: 541086448501739023, guid: 4523de4e8af494a8e879ee7f4b53f5da,
        type: 3}
      propertyPath: m_Name
      value: Wall (7)
      objectReference: {fileID: 0}
    - target: {fileID: 541086448501739009, guid: 4523de4e8af494a8e879ee7f4b53f5da,
        type: 3}
      propertyPath: m_LocalPosition.x
      value: 1
      objectReference: {fileID: 0}
    - target: {fileID: 541086448501739009, guid: 4523de4e8af494a8e879ee7f4b53f5da,
        type: 3}
      propertyPath: m_LocalPosition.y
      value: 0
      objectReference: {fileID: 0}
    - target: {fileID: 541086448501739009, guid: 4523de4e8af494a8e879ee7f4b53f5da,
        type: 3}
      propertyPath: m_LocalPosition.z
      value: 16
      objectReference: {fileID: 0}
    - target: {fileID: 541086448501739009, guid: 4523de4e8af494a8e879ee7f4b53f5da,
        type: 3}
      propertyPath: m_LocalRotation.x
      value: 0
      objectReference: {fileID: 0}
    - target: {fileID: 541086448501739009, guid: 4523de4e8af494a8e879ee7f4b53f5da,
        type: 3}
      propertyPath: m_LocalRotation.y
      value: 0
      objectReference: {fileID: 0}
    - target: {fileID: 541086448501739009, guid: 4523de4e8af494a8e879ee7f4b53f5da,
        type: 3}
      propertyPath: m_LocalRotation.z
      value: 0
      objectReference: {fileID: 0}
    - target: {fileID: 541086448501739009, guid: 4523de4e8af494a8e879ee7f4b53f5da,
        type: 3}
      propertyPath: m_LocalRotation.w
      value: 1
      objectReference: {fileID: 0}
    - target: {fileID: 541086448501739009, guid: 4523de4e8af494a8e879ee7f4b53f5da,
        type: 3}
      propertyPath: m_RootOrder
      value: 16
      objectReference: {fileID: 0}
    - target: {fileID: 541086448501739009, guid: 4523de4e8af494a8e879ee7f4b53f5da,
        type: 3}
      propertyPath: m_LocalEulerAnglesHint.x
      value: 0
      objectReference: {fileID: 0}
    - target: {fileID: 541086448501739009, guid: 4523de4e8af494a8e879ee7f4b53f5da,
        type: 3}
      propertyPath: m_LocalEulerAnglesHint.y
      value: 0
      objectReference: {fileID: 0}
    - target: {fileID: 541086448501739009, guid: 4523de4e8af494a8e879ee7f4b53f5da,
        type: 3}
      propertyPath: m_LocalEulerAnglesHint.z
      value: 0
      objectReference: {fileID: 0}
    - target: {fileID: 541086448501739009, guid: 4523de4e8af494a8e879ee7f4b53f5da,
        type: 3}
      propertyPath: m_LocalScale.x
      value: 1
      objectReference: {fileID: 0}
    - target: {fileID: 541086448501739009, guid: 4523de4e8af494a8e879ee7f4b53f5da,
        type: 3}
      propertyPath: m_LocalScale.z
      value: 1
      objectReference: {fileID: 0}
    m_RemovedComponents: []
  m_SourcePrefab: {fileID: 100100000, guid: 4523de4e8af494a8e879ee7f4b53f5da, type: 3}
--- !u!1001 &1301486869
PrefabInstance:
  m_ObjectHideFlags: 0
  serializedVersion: 2
  m_Modification:
    m_TransformParent: {fileID: 0}
    m_Modifications:
    - target: {fileID: 541086448501739023, guid: 4523de4e8af494a8e879ee7f4b53f5da,
        type: 3}
      propertyPath: m_Name
      value: Wall (10)
      objectReference: {fileID: 0}
    - target: {fileID: 541086448501739009, guid: 4523de4e8af494a8e879ee7f4b53f5da,
        type: 3}
      propertyPath: m_LocalPosition.x
      value: -2
      objectReference: {fileID: 0}
    - target: {fileID: 541086448501739009, guid: 4523de4e8af494a8e879ee7f4b53f5da,
        type: 3}
      propertyPath: m_LocalPosition.y
      value: 0
      objectReference: {fileID: 0}
    - target: {fileID: 541086448501739009, guid: 4523de4e8af494a8e879ee7f4b53f5da,
        type: 3}
      propertyPath: m_LocalPosition.z
      value: 3
      objectReference: {fileID: 0}
    - target: {fileID: 541086448501739009, guid: 4523de4e8af494a8e879ee7f4b53f5da,
        type: 3}
      propertyPath: m_LocalRotation.x
      value: 0
      objectReference: {fileID: 0}
    - target: {fileID: 541086448501739009, guid: 4523de4e8af494a8e879ee7f4b53f5da,
        type: 3}
      propertyPath: m_LocalRotation.y
      value: 0
      objectReference: {fileID: 0}
    - target: {fileID: 541086448501739009, guid: 4523de4e8af494a8e879ee7f4b53f5da,
        type: 3}
      propertyPath: m_LocalRotation.z
      value: 0
      objectReference: {fileID: 0}
    - target: {fileID: 541086448501739009, guid: 4523de4e8af494a8e879ee7f4b53f5da,
        type: 3}
      propertyPath: m_LocalRotation.w
      value: 1
      objectReference: {fileID: 0}
    - target: {fileID: 541086448501739009, guid: 4523de4e8af494a8e879ee7f4b53f5da,
        type: 3}
      propertyPath: m_RootOrder
      value: 24
      objectReference: {fileID: 0}
    - target: {fileID: 541086448501739009, guid: 4523de4e8af494a8e879ee7f4b53f5da,
        type: 3}
      propertyPath: m_LocalEulerAnglesHint.x
      value: 0
      objectReference: {fileID: 0}
    - target: {fileID: 541086448501739009, guid: 4523de4e8af494a8e879ee7f4b53f5da,
        type: 3}
      propertyPath: m_LocalEulerAnglesHint.y
      value: 0
      objectReference: {fileID: 0}
    - target: {fileID: 541086448501739009, guid: 4523de4e8af494a8e879ee7f4b53f5da,
        type: 3}
      propertyPath: m_LocalEulerAnglesHint.z
      value: 0
      objectReference: {fileID: 0}
    - target: {fileID: 541086448501739009, guid: 4523de4e8af494a8e879ee7f4b53f5da,
        type: 3}
      propertyPath: m_LocalScale.x
      value: 1
      objectReference: {fileID: 0}
    - target: {fileID: 541086448501739009, guid: 4523de4e8af494a8e879ee7f4b53f5da,
        type: 3}
      propertyPath: m_LocalScale.z
      value: 1
      objectReference: {fileID: 0}
    m_RemovedComponents: []
  m_SourcePrefab: {fileID: 100100000, guid: 4523de4e8af494a8e879ee7f4b53f5da, type: 3}
--- !u!1001 &1578171942
PrefabInstance:
  m_ObjectHideFlags: 0
  serializedVersion: 2
  m_Modification:
    m_TransformParent: {fileID: 0}
    m_Modifications:
    - target: {fileID: 541086448501739023, guid: 4523de4e8af494a8e879ee7f4b53f5da,
        type: 3}
      propertyPath: m_Name
      value: Wall (3)
      objectReference: {fileID: 0}
    - target: {fileID: 541086448501739009, guid: 4523de4e8af494a8e879ee7f4b53f5da,
        type: 3}
      propertyPath: m_LocalPosition.x
      value: -2
      objectReference: {fileID: 0}
    - target: {fileID: 541086448501739009, guid: 4523de4e8af494a8e879ee7f4b53f5da,
        type: 3}
      propertyPath: m_LocalPosition.y
      value: 0
      objectReference: {fileID: 0}
    - target: {fileID: 541086448501739009, guid: 4523de4e8af494a8e879ee7f4b53f5da,
        type: 3}
      propertyPath: m_LocalPosition.z
      value: 12
      objectReference: {fileID: 0}
    - target: {fileID: 541086448501739009, guid: 4523de4e8af494a8e879ee7f4b53f5da,
        type: 3}
      propertyPath: m_LocalRotation.x
      value: 0
      objectReference: {fileID: 0}
    - target: {fileID: 541086448501739009, guid: 4523de4e8af494a8e879ee7f4b53f5da,
        type: 3}
      propertyPath: m_LocalRotation.y
      value: 0
      objectReference: {fileID: 0}
    - target: {fileID: 541086448501739009, guid: 4523de4e8af494a8e879ee7f4b53f5da,
        type: 3}
      propertyPath: m_LocalRotation.z
      value: 0
      objectReference: {fileID: 0}
    - target: {fileID: 541086448501739009, guid: 4523de4e8af494a8e879ee7f4b53f5da,
        type: 3}
      propertyPath: m_LocalRotation.w
      value: 1
      objectReference: {fileID: 0}
    - target: {fileID: 541086448501739009, guid: 4523de4e8af494a8e879ee7f4b53f5da,
        type: 3}
      propertyPath: m_RootOrder
      value: 12
      objectReference: {fileID: 0}
    - target: {fileID: 541086448501739009, guid: 4523de4e8af494a8e879ee7f4b53f5da,
        type: 3}
      propertyPath: m_LocalEulerAnglesHint.x
      value: 0
      objectReference: {fileID: 0}
    - target: {fileID: 541086448501739009, guid: 4523de4e8af494a8e879ee7f4b53f5da,
        type: 3}
      propertyPath: m_LocalEulerAnglesHint.y
      value: 0
      objectReference: {fileID: 0}
    - target: {fileID: 541086448501739009, guid: 4523de4e8af494a8e879ee7f4b53f5da,
        type: 3}
      propertyPath: m_LocalEulerAnglesHint.z
      value: 0
      objectReference: {fileID: 0}
    - target: {fileID: 541086448501739009, guid: 4523de4e8af494a8e879ee7f4b53f5da,
        type: 3}
      propertyPath: m_LocalScale.x
      value: 1
      objectReference: {fileID: 0}
    - target: {fileID: 541086448501739009, guid: 4523de4e8af494a8e879ee7f4b53f5da,
        type: 3}
      propertyPath: m_LocalScale.z
      value: 1
      objectReference: {fileID: 0}
    m_RemovedComponents: []
  m_SourcePrefab: {fileID: 100100000, guid: 4523de4e8af494a8e879ee7f4b53f5da, type: 3}
--- !u!1001 &1680422569
PrefabInstance:
  m_ObjectHideFlags: 0
  serializedVersion: 2
  m_Modification:
    m_TransformParent: {fileID: 0}
    m_Modifications:
    - target: {fileID: 2869952636615049436, guid: 2de006cbe1dcf4b27819c6516fc8cf92,
        type: 3}
      propertyPath: m_Name
      value: Walking (1)
      objectReference: {fileID: 0}
    - target: {fileID: 2869952636615049432, guid: 2de006cbe1dcf4b27819c6516fc8cf92,
        type: 3}
      propertyPath: m_LocalPosition.x
      value: 1.98
      objectReference: {fileID: 0}
    - target: {fileID: 2869952636615049432, guid: 2de006cbe1dcf4b27819c6516fc8cf92,
        type: 3}
      propertyPath: m_LocalPosition.y
      value: 0.005000001
      objectReference: {fileID: 0}
    - target: {fileID: 2869952636615049432, guid: 2de006cbe1dcf4b27819c6516fc8cf92,
        type: 3}
      propertyPath: m_LocalPosition.z
      value: 13.07
      objectReference: {fileID: 0}
    - target: {fileID: 2869952636615049432, guid: 2de006cbe1dcf4b27819c6516fc8cf92,
        type: 3}
      propertyPath: m_LocalRotation.x
      value: 0
      objectReference: {fileID: 0}
    - target: {fileID: 2869952636615049432, guid: 2de006cbe1dcf4b27819c6516fc8cf92,
        type: 3}
      propertyPath: m_LocalRotation.y
      value: 1
      objectReference: {fileID: 0}
    - target: {fileID: 2869952636615049432, guid: 2de006cbe1dcf4b27819c6516fc8cf92,
        type: 3}
      propertyPath: m_LocalRotation.z
      value: 0
      objectReference: {fileID: 0}
    - target: {fileID: 2869952636615049432, guid: 2de006cbe1dcf4b27819c6516fc8cf92,
        type: 3}
      propertyPath: m_LocalRotation.w
      value: 0
      objectReference: {fileID: 0}
    - target: {fileID: 2869952636615049432, guid: 2de006cbe1dcf4b27819c6516fc8cf92,
        type: 3}
      propertyPath: m_RootOrder
      value: 21
      objectReference: {fileID: 0}
    - target: {fileID: 2869952636615049432, guid: 2de006cbe1dcf4b27819c6516fc8cf92,
        type: 3}
      propertyPath: m_LocalEulerAnglesHint.x
      value: 0
      objectReference: {fileID: 0}
    - target: {fileID: 2869952636615049432, guid: 2de006cbe1dcf4b27819c6516fc8cf92,
        type: 3}
      propertyPath: m_LocalEulerAnglesHint.y
      value: 180
      objectReference: {fileID: 0}
    - target: {fileID: 2869952636615049432, guid: 2de006cbe1dcf4b27819c6516fc8cf92,
        type: 3}
      propertyPath: m_LocalEulerAnglesHint.z
      value: 0
      objectReference: {fileID: 0}
    m_RemovedComponents: []
  m_SourcePrefab: {fileID: 100100000, guid: 2de006cbe1dcf4b27819c6516fc8cf92, type: 3}
--- !u!1001 &1729163324
PrefabInstance:
  m_ObjectHideFlags: 0
  serializedVersion: 2
  m_Modification:
    m_TransformParent: {fileID: 0}
    m_Modifications:
    - target: {fileID: 4242025528285323700, guid: e4caa8176ba3b4c1e8d5a87aa631e3a0,
        type: 3}
      propertyPath: m_Name
      value: Water (4)
      objectReference: {fileID: 0}
    - target: {fileID: 8882138379518226771, guid: e4caa8176ba3b4c1e8d5a87aa631e3a0,
        type: 3}
      propertyPath: m_LocalPosition.x
      value: -2
      objectReference: {fileID: 0}
    - target: {fileID: 8882138379518226771, guid: e4caa8176ba3b4c1e8d5a87aa631e3a0,
        type: 3}
      propertyPath: m_LocalPosition.y
      value: 0
      objectReference: {fileID: 0}
    - target: {fileID: 8882138379518226771, guid: e4caa8176ba3b4c1e8d5a87aa631e3a0,
        type: 3}
      propertyPath: m_LocalPosition.z
      value: 15
      objectReference: {fileID: 0}
    - target: {fileID: 8882138379518226771, guid: e4caa8176ba3b4c1e8d5a87aa631e3a0,
        type: 3}
      propertyPath: m_LocalRotation.x
      value: 0
      objectReference: {fileID: 0}
    - target: {fileID: 8882138379518226771, guid: e4caa8176ba3b4c1e8d5a87aa631e3a0,
        type: 3}
      propertyPath: m_LocalRotation.y
      value: 0
      objectReference: {fileID: 0}
    - target: {fileID: 8882138379518226771, guid: e4caa8176ba3b4c1e8d5a87aa631e3a0,
        type: 3}
      propertyPath: m_LocalRotation.z
      value: 0
      objectReference: {fileID: 0}
    - target: {fileID: 8882138379518226771, guid: e4caa8176ba3b4c1e8d5a87aa631e3a0,
        type: 3}
      propertyPath: m_LocalRotation.w
      value: 1
      objectReference: {fileID: 0}
    - target: {fileID: 8882138379518226771, guid: e4caa8176ba3b4c1e8d5a87aa631e3a0,
        type: 3}
      propertyPath: m_RootOrder
      value: 19
      objectReference: {fileID: 0}
    - target: {fileID: 8882138379518226771, guid: e4caa8176ba3b4c1e8d5a87aa631e3a0,
        type: 3}
      propertyPath: m_LocalEulerAnglesHint.x
      value: 0
      objectReference: {fileID: 0}
    - target: {fileID: 8882138379518226771, guid: e4caa8176ba3b4c1e8d5a87aa631e3a0,
        type: 3}
      propertyPath: m_LocalEulerAnglesHint.y
      value: 0
      objectReference: {fileID: 0}
    - target: {fileID: 8882138379518226771, guid: e4caa8176ba3b4c1e8d5a87aa631e3a0,
        type: 3}
      propertyPath: m_LocalEulerAnglesHint.z
      value: 0
      objectReference: {fileID: 0}
    - target: {fileID: 8882138379518226771, guid: e4caa8176ba3b4c1e8d5a87aa631e3a0,
        type: 3}
      propertyPath: m_LocalScale.x
      value: 1
      objectReference: {fileID: 0}
    - target: {fileID: 8882138379518226771, guid: e4caa8176ba3b4c1e8d5a87aa631e3a0,
        type: 3}
      propertyPath: m_LocalScale.z
      value: 1
      objectReference: {fileID: 0}
    - target: {fileID: 7021193985524820127, guid: e4caa8176ba3b4c1e8d5a87aa631e3a0,
        type: 3}
      propertyPath: m_IsTrigger
      value: 0
      objectReference: {fileID: 0}
    m_RemovedComponents: []
  m_SourcePrefab: {fileID: 100100000, guid: e4caa8176ba3b4c1e8d5a87aa631e3a0, type: 3}
--- !u!1001 &1857575854
PrefabInstance:
  m_ObjectHideFlags: 0
  serializedVersion: 2
  m_Modification:
    m_TransformParent: {fileID: 0}
    m_Modifications:
    - target: {fileID: 2869952636615049436, guid: 2de006cbe1dcf4b27819c6516fc8cf92,
        type: 3}
      propertyPath: m_Name
      value: Walking (2)
      objectReference: {fileID: 0}
    - target: {fileID: 2869952636615049432, guid: 2de006cbe1dcf4b27819c6516fc8cf92,
        type: 3}
      propertyPath: m_LocalPosition.x
      value: -3.98
      objectReference: {fileID: 0}
    - target: {fileID: 2869952636615049432, guid: 2de006cbe1dcf4b27819c6516fc8cf92,
        type: 3}
      propertyPath: m_LocalPosition.y
      value: 0.005000001
      objectReference: {fileID: 0}
    - target: {fileID: 2869952636615049432, guid: 2de006cbe1dcf4b27819c6516fc8cf92,
        type: 3}
      propertyPath: m_LocalPosition.z
      value: 15.13
      objectReference: {fileID: 0}
    - target: {fileID: 2869952636615049432, guid: 2de006cbe1dcf4b27819c6516fc8cf92,
        type: 3}
      propertyPath: m_LocalRotation.x
      value: 0
      objectReference: {fileID: 0}
    - target: {fileID: 2869952636615049432, guid: 2de006cbe1dcf4b27819c6516fc8cf92,
        type: 3}
      propertyPath: m_LocalRotation.y
      value: 1
      objectReference: {fileID: 0}
    - target: {fileID: 2869952636615049432, guid: 2de006cbe1dcf4b27819c6516fc8cf92,
        type: 3}
      propertyPath: m_LocalRotation.z
      value: 0
      objectReference: {fileID: 0}
    - target: {fileID: 2869952636615049432, guid: 2de006cbe1dcf4b27819c6516fc8cf92,
        type: 3}
      propertyPath: m_LocalRotation.w
      value: 0
      objectReference: {fileID: 0}
    - target: {fileID: 2869952636615049432, guid: 2de006cbe1dcf4b27819c6516fc8cf92,
        type: 3}
      propertyPath: m_RootOrder
      value: 22
      objectReference: {fileID: 0}
    - target: {fileID: 2869952636615049432, guid: 2de006cbe1dcf4b27819c6516fc8cf92,
        type: 3}
      propertyPath: m_LocalEulerAnglesHint.x
      value: 0
      objectReference: {fileID: 0}
    - target: {fileID: 2869952636615049432, guid: 2de006cbe1dcf4b27819c6516fc8cf92,
        type: 3}
      propertyPath: m_LocalEulerAnglesHint.y
      value: 180
      objectReference: {fileID: 0}
    - target: {fileID: 2869952636615049432, guid: 2de006cbe1dcf4b27819c6516fc8cf92,
        type: 3}
      propertyPath: m_LocalEulerAnglesHint.z
      value: 0
      objectReference: {fileID: 0}
    m_RemovedComponents: []
  m_SourcePrefab: {fileID: 100100000, guid: 2de006cbe1dcf4b27819c6516fc8cf92, type: 3}
--- !u!1001 &1896420176
PrefabInstance:
  m_ObjectHideFlags: 0
  serializedVersion: 2
  m_Modification:
    m_TransformParent: {fileID: 0}
    m_Modifications:
    - target: {fileID: 541086448501739023, guid: 4523de4e8af494a8e879ee7f4b53f5da,
        type: 3}
      propertyPath: m_Name
      value: Wall (1)
      objectReference: {fileID: 0}
    - target: {fileID: 541086448501739009, guid: 4523de4e8af494a8e879ee7f4b53f5da,
        type: 3}
      propertyPath: m_LocalPosition.x
      value: 1
      objectReference: {fileID: 0}
    - target: {fileID: 541086448501739009, guid: 4523de4e8af494a8e879ee7f4b53f5da,
        type: 3}
      propertyPath: m_LocalPosition.y
      value: 0
      objectReference: {fileID: 0}
    - target: {fileID: 541086448501739009, guid: 4523de4e8af494a8e879ee7f4b53f5da,
        type: 3}
      propertyPath: m_LocalPosition.z
      value: 9
      objectReference: {fileID: 0}
    - target: {fileID: 541086448501739009, guid: 4523de4e8af494a8e879ee7f4b53f5da,
        type: 3}
      propertyPath: m_LocalRotation.x
      value: 0
      objectReference: {fileID: 0}
    - target: {fileID: 541086448501739009, guid: 4523de4e8af494a8e879ee7f4b53f5da,
        type: 3}
      propertyPath: m_LocalRotation.y
      value: 0
      objectReference: {fileID: 0}
    - target: {fileID: 541086448501739009, guid: 4523de4e8af494a8e879ee7f4b53f5da,
        type: 3}
      propertyPath: m_LocalRotation.z
      value: 0
      objectReference: {fileID: 0}
    - target: {fileID: 541086448501739009, guid: 4523de4e8af494a8e879ee7f4b53f5da,
        type: 3}
      propertyPath: m_LocalRotation.w
      value: 1
      objectReference: {fileID: 0}
    - target: {fileID: 541086448501739009, guid: 4523de4e8af494a8e879ee7f4b53f5da,
        type: 3}
      propertyPath: m_RootOrder
      value: 10
      objectReference: {fileID: 0}
    - target: {fileID: 541086448501739009, guid: 4523de4e8af494a8e879ee7f4b53f5da,
        type: 3}
      propertyPath: m_LocalEulerAnglesHint.x
      value: 0
      objectReference: {fileID: 0}
    - target: {fileID: 541086448501739009, guid: 4523de4e8af494a8e879ee7f4b53f5da,
        type: 3}
      propertyPath: m_LocalEulerAnglesHint.y
      value: 0
      objectReference: {fileID: 0}
    - target: {fileID: 541086448501739009, guid: 4523de4e8af494a8e879ee7f4b53f5da,
        type: 3}
      propertyPath: m_LocalEulerAnglesHint.z
      value: 0
      objectReference: {fileID: 0}
    - target: {fileID: 541086448501739009, guid: 4523de4e8af494a8e879ee7f4b53f5da,
        type: 3}
      propertyPath: m_LocalScale.x
      value: 1
      objectReference: {fileID: 0}
    - target: {fileID: 541086448501739009, guid: 4523de4e8af494a8e879ee7f4b53f5da,
        type: 3}
      propertyPath: m_LocalScale.z
      value: 1
      objectReference: {fileID: 0}
    m_RemovedComponents: []
  m_SourcePrefab: {fileID: 100100000, guid: 4523de4e8af494a8e879ee7f4b53f5da, type: 3}
--- !u!1001 &2015614534
PrefabInstance:
  m_ObjectHideFlags: 0
  serializedVersion: 2
  m_Modification:
    m_TransformParent: {fileID: 0}
    m_Modifications:
    - target: {fileID: 541086448501739023, guid: 4523de4e8af494a8e879ee7f4b53f5da,
        type: 3}
      propertyPath: m_Name
      value: Wall (5)
      objectReference: {fileID: 0}
    - target: {fileID: 541086448501739009, guid: 4523de4e8af494a8e879ee7f4b53f5da,
        type: 3}
      propertyPath: m_LocalPosition.x
      value: 0
      objectReference: {fileID: 0}
    - target: {fileID: 541086448501739009, guid: 4523de4e8af494a8e879ee7f4b53f5da,
        type: 3}
      propertyPath: m_LocalPosition.y
      value: 0
      objectReference: {fileID: 0}
    - target: {fileID: 541086448501739009, guid: 4523de4e8af494a8e879ee7f4b53f5da,
        type: 3}
      propertyPath: m_LocalPosition.z
      value: 12
      objectReference: {fileID: 0}
    - target: {fileID: 541086448501739009, guid: 4523de4e8af494a8e879ee7f4b53f5da,
        type: 3}
      propertyPath: m_LocalRotation.x
      value: 0
      objectReference: {fileID: 0}
    - target: {fileID: 541086448501739009, guid: 4523de4e8af494a8e879ee7f4b53f5da,
        type: 3}
      propertyPath: m_LocalRotation.y
      value: 0
      objectReference: {fileID: 0}
    - target: {fileID: 541086448501739009, guid: 4523de4e8af494a8e879ee7f4b53f5da,
        type: 3}
      propertyPath: m_LocalRotation.z
      value: 0
      objectReference: {fileID: 0}
    - target: {fileID: 541086448501739009, guid: 4523de4e8af494a8e879ee7f4b53f5da,
        type: 3}
      propertyPath: m_LocalRotation.w
      value: 1
      objectReference: {fileID: 0}
    - target: {fileID: 541086448501739009, guid: 4523de4e8af494a8e879ee7f4b53f5da,
        type: 3}
      propertyPath: m_RootOrder
      value: 14
      objectReference: {fileID: 0}
    - target: {fileID: 541086448501739009, guid: 4523de4e8af494a8e879ee7f4b53f5da,
        type: 3}
      propertyPath: m_LocalEulerAnglesHint.x
      value: 0
      objectReference: {fileID: 0}
    - target: {fileID: 541086448501739009, guid: 4523de4e8af494a8e879ee7f4b53f5da,
        type: 3}
      propertyPath: m_LocalEulerAnglesHint.y
      value: 0
      objectReference: {fileID: 0}
    - target: {fileID: 541086448501739009, guid: 4523de4e8af494a8e879ee7f4b53f5da,
        type: 3}
      propertyPath: m_LocalEulerAnglesHint.z
      value: 0
      objectReference: {fileID: 0}
    - target: {fileID: 541086448501739009, guid: 4523de4e8af494a8e879ee7f4b53f5da,
        type: 3}
      propertyPath: m_LocalScale.x
      value: 1
      objectReference: {fileID: 0}
    - target: {fileID: 541086448501739009, guid: 4523de4e8af494a8e879ee7f4b53f5da,
        type: 3}
      propertyPath: m_LocalScale.z
      value: 1
      objectReference: {fileID: 0}
    m_RemovedComponents: []
  m_SourcePrefab: {fileID: 100100000, guid: 4523de4e8af494a8e879ee7f4b53f5da, type: 3}
--- !u!1001 &2027297510
PrefabInstance:
  m_ObjectHideFlags: 0
  serializedVersion: 2
  m_Modification:
    m_TransformParent: {fileID: 0}
    m_Modifications:
    - target: {fileID: 541086448501739023, guid: 4523de4e8af494a8e879ee7f4b53f5da,
        type: 3}
      propertyPath: m_Name
      value: Wall (4)
      objectReference: {fileID: 0}
    - target: {fileID: 541086448501739009, guid: 4523de4e8af494a8e879ee7f4b53f5da,
        type: 3}
      propertyPath: m_LocalPosition.x
      value: -1
      objectReference: {fileID: 0}
    - target: {fileID: 541086448501739009, guid: 4523de4e8af494a8e879ee7f4b53f5da,
        type: 3}
      propertyPath: m_LocalPosition.y
      value: 0
      objectReference: {fileID: 0}
    - target: {fileID: 541086448501739009, guid: 4523de4e8af494a8e879ee7f4b53f5da,
        type: 3}
      propertyPath: m_LocalPosition.z
      value: 12
      objectReference: {fileID: 0}
    - target: {fileID: 541086448501739009, guid: 4523de4e8af494a8e879ee7f4b53f5da,
        type: 3}
      propertyPath: m_LocalRotation.x
      value: 0
      objectReference: {fileID: 0}
    - target: {fileID: 541086448501739009, guid: 4523de4e8af494a8e879ee7f4b53f5da,
        type: 3}
      propertyPath: m_LocalRotation.y
      value: 0
      objectReference: {fileID: 0}
    - target: {fileID: 541086448501739009, guid: 4523de4e8af494a8e879ee7f4b53f5da,
        type: 3}
      propertyPath: m_LocalRotation.z
      value: 0
      objectReference: {fileID: 0}
    - target: {fileID: 541086448501739009, guid: 4523de4e8af494a8e879ee7f4b53f5da,
        type: 3}
      propertyPath: m_LocalRotation.w
      value: 1
      objectReference: {fileID: 0}
    - target: {fileID: 541086448501739009, guid: 4523de4e8af494a8e879ee7f4b53f5da,
        type: 3}
      propertyPath: m_RootOrder
      value: 13
      objectReference: {fileID: 0}
    - target: {fileID: 541086448501739009, guid: 4523de4e8af494a8e879ee7f4b53f5da,
        type: 3}
      propertyPath: m_LocalEulerAnglesHint.x
      value: 0
      objectReference: {fileID: 0}
    - target: {fileID: 541086448501739009, guid: 4523de4e8af494a8e879ee7f4b53f5da,
        type: 3}
      propertyPath: m_LocalEulerAnglesHint.y
      value: 0
      objectReference: {fileID: 0}
    - target: {fileID: 541086448501739009, guid: 4523de4e8af494a8e879ee7f4b53f5da,
        type: 3}
      propertyPath: m_LocalEulerAnglesHint.z
      value: 0
      objectReference: {fileID: 0}
    - target: {fileID: 541086448501739009, guid: 4523de4e8af494a8e879ee7f4b53f5da,
        type: 3}
      propertyPath: m_LocalScale.x
      value: 1
      objectReference: {fileID: 0}
    - target: {fileID: 541086448501739009, guid: 4523de4e8af494a8e879ee7f4b53f5da,
        type: 3}
      propertyPath: m_LocalScale.z
      value: 1
      objectReference: {fileID: 0}
    m_RemovedComponents: []
  m_SourcePrefab: {fileID: 100100000, guid: 4523de4e8af494a8e879ee7f4b53f5da, type: 3}
--- !u!1001 &2147371208
PrefabInstance:
  m_ObjectHideFlags: 0
  serializedVersion: 2
  m_Modification:
    m_TransformParent: {fileID: 0}
    m_Modifications:
    - target: {fileID: 541086448501739023, guid: 4523de4e8af494a8e879ee7f4b53f5da,
        type: 3}
      propertyPath: m_Name
      value: Wall (9)
      objectReference: {fileID: 0}
    - target: {fileID: 541086448501739009, guid: 4523de4e8af494a8e879ee7f4b53f5da,
        type: 3}
      propertyPath: m_LocalPosition.x
      value: -1
      objectReference: {fileID: 0}
    - target: {fileID: 541086448501739009, guid: 4523de4e8af494a8e879ee7f4b53f5da,
        type: 3}
      propertyPath: m_LocalPosition.y
      value: 0
      objectReference: {fileID: 0}
    - target: {fileID: 541086448501739009, guid: 4523de4e8af494a8e879ee7f4b53f5da,
        type: 3}
      propertyPath: m_LocalPosition.z
      value: 3
      objectReference: {fileID: 0}
    - target: {fileID: 541086448501739009, guid: 4523de4e8af494a8e879ee7f4b53f5da,
        type: 3}
      propertyPath: m_LocalRotation.x
      value: 0
      objectReference: {fileID: 0}
    - target: {fileID: 541086448501739009, guid: 4523de4e8af494a8e879ee7f4b53f5da,
        type: 3}
      propertyPath: m_LocalRotation.y
      value: 0
      objectReference: {fileID: 0}
    - target: {fileID: 541086448501739009, guid: 4523de4e8af494a8e879ee7f4b53f5da,
        type: 3}
      propertyPath: m_LocalRotation.z
      value: 0
      objectReference: {fileID: 0}
    - target: {fileID: 541086448501739009, guid: 4523de4e8af494a8e879ee7f4b53f5da,
        type: 3}
      propertyPath: m_LocalRotation.w
      value: 1
      objectReference: {fileID: 0}
    - target: {fileID: 541086448501739009, guid: 4523de4e8af494a8e879ee7f4b53f5da,
        type: 3}
      propertyPath: m_RootOrder
      value: 23
      objectReference: {fileID: 0}
    - target: {fileID: 541086448501739009, guid: 4523de4e8af494a8e879ee7f4b53f5da,
        type: 3}
      propertyPath: m_LocalEulerAnglesHint.x
      value: 0
      objectReference: {fileID: 0}
    - target: {fileID: 541086448501739009, guid: 4523de4e8af494a8e879ee7f4b53f5da,
        type: 3}
      propertyPath: m_LocalEulerAnglesHint.y
      value: 0
      objectReference: {fileID: 0}
    - target: {fileID: 541086448501739009, guid: 4523de4e8af494a8e879ee7f4b53f5da,
        type: 3}
      propertyPath: m_LocalEulerAnglesHint.z
      value: 0
      objectReference: {fileID: 0}
    - target: {fileID: 541086448501739009, guid: 4523de4e8af494a8e879ee7f4b53f5da,
        type: 3}
      propertyPath: m_LocalScale.x
      value: 1
      objectReference: {fileID: 0}
    - target: {fileID: 541086448501739009, guid: 4523de4e8af494a8e879ee7f4b53f5da,
        type: 3}
      propertyPath: m_LocalScale.z
      value: 1
      objectReference: {fileID: 0}
    m_RemovedComponents: []
  m_SourcePrefab: {fileID: 100100000, guid: 4523de4e8af494a8e879ee7f4b53f5da, type: 3}
--- !u!1001 &541086448421562057
PrefabInstance:
  m_ObjectHideFlags: 0
  serializedVersion: 2
  m_Modification:
    m_TransformParent: {fileID: 0}
    m_Modifications:
    - target: {fileID: 541086448501739023, guid: 4523de4e8af494a8e879ee7f4b53f5da,
        type: 3}
      propertyPath: m_Name
      value: Wall
      objectReference: {fileID: 0}
    - target: {fileID: 541086448501739009, guid: 4523de4e8af494a8e879ee7f4b53f5da,
        type: 3}
      propertyPath: m_LocalPosition.x
      value: 0
      objectReference: {fileID: 0}
    - target: {fileID: 541086448501739009, guid: 4523de4e8af494a8e879ee7f4b53f5da,
        type: 3}
      propertyPath: m_LocalPosition.y
      value: 0
      objectReference: {fileID: 0}
    - target: {fileID: 541086448501739009, guid: 4523de4e8af494a8e879ee7f4b53f5da,
        type: 3}
      propertyPath: m_LocalPosition.z
      value: 9
      objectReference: {fileID: 0}
    - target: {fileID: 541086448501739009, guid: 4523de4e8af494a8e879ee7f4b53f5da,
        type: 3}
      propertyPath: m_LocalRotation.x
      value: 0
      objectReference: {fileID: 0}
    - target: {fileID: 541086448501739009, guid: 4523de4e8af494a8e879ee7f4b53f5da,
        type: 3}
      propertyPath: m_LocalRotation.y
      value: 0
      objectReference: {fileID: 0}
    - target: {fileID: 541086448501739009, guid: 4523de4e8af494a8e879ee7f4b53f5da,
        type: 3}
      propertyPath: m_LocalRotation.z
      value: 0
      objectReference: {fileID: 0}
    - target: {fileID: 541086448501739009, guid: 4523de4e8af494a8e879ee7f4b53f5da,
        type: 3}
      propertyPath: m_LocalRotation.w
      value: 1
      objectReference: {fileID: 0}
    - target: {fileID: 541086448501739009, guid: 4523de4e8af494a8e879ee7f4b53f5da,
        type: 3}
      propertyPath: m_RootOrder
      value: 6
      objectReference: {fileID: 0}
    - target: {fileID: 541086448501739009, guid: 4523de4e8af494a8e879ee7f4b53f5da,
        type: 3}
      propertyPath: m_LocalEulerAnglesHint.x
      value: 0
      objectReference: {fileID: 0}
    - target: {fileID: 541086448501739009, guid: 4523de4e8af494a8e879ee7f4b53f5da,
        type: 3}
      propertyPath: m_LocalEulerAnglesHint.y
      value: 0
      objectReference: {fileID: 0}
    - target: {fileID: 541086448501739009, guid: 4523de4e8af494a8e879ee7f4b53f5da,
        type: 3}
      propertyPath: m_LocalEulerAnglesHint.z
      value: 0
      objectReference: {fileID: 0}
    - target: {fileID: 541086448501739009, guid: 4523de4e8af494a8e879ee7f4b53f5da,
        type: 3}
      propertyPath: m_LocalScale.x
      value: 1
      objectReference: {fileID: 0}
    - target: {fileID: 541086448501739009, guid: 4523de4e8af494a8e879ee7f4b53f5da,
        type: 3}
      propertyPath: m_LocalScale.z
      value: 1
      objectReference: {fileID: 0}
    m_RemovedComponents: []
  m_SourcePrefab: {fileID: 100100000, guid: 4523de4e8af494a8e879ee7f4b53f5da, type: 3}
--- !u!1001 &2895414496852387603
PrefabInstance:
  m_ObjectHideFlags: 0
  serializedVersion: 2
  m_Modification:
    m_TransformParent: {fileID: 0}
    m_Modifications:
    - target: {fileID: 2895414496702445901, guid: bc0a7b34cdcbf4d47a95b80155992db4,
        type: 3}
      propertyPath: m_Name
      value: Map
      objectReference: {fileID: 0}
    - target: {fileID: 2895414496702445900, guid: bc0a7b34cdcbf4d47a95b80155992db4,
        type: 3}
      propertyPath: m_LocalPosition.x
      value: 0
      objectReference: {fileID: 0}
    - target: {fileID: 2895414496702445900, guid: bc0a7b34cdcbf4d47a95b80155992db4,
        type: 3}
      propertyPath: m_LocalPosition.y
      value: 0
      objectReference: {fileID: 0}
    - target: {fileID: 2895414496702445900, guid: bc0a7b34cdcbf4d47a95b80155992db4,
        type: 3}
      propertyPath: m_LocalPosition.z
      value: 0
      objectReference: {fileID: 0}
    - target: {fileID: 2895414496702445900, guid: bc0a7b34cdcbf4d47a95b80155992db4,
        type: 3}
      propertyPath: m_LocalRotation.x
      value: 0
      objectReference: {fileID: 0}
    - target: {fileID: 2895414496702445900, guid: bc0a7b34cdcbf4d47a95b80155992db4,
        type: 3}
      propertyPath: m_LocalRotation.y
      value: -0.7071068
      objectReference: {fileID: 0}
    - target: {fileID: 2895414496702445900, guid: bc0a7b34cdcbf4d47a95b80155992db4,
        type: 3}
      propertyPath: m_LocalRotation.z
      value: 0
      objectReference: {fileID: 0}
    - target: {fileID: 2895414496702445900, guid: bc0a7b34cdcbf4d47a95b80155992db4,
        type: 3}
      propertyPath: m_LocalRotation.w
      value: 0.7071068
      objectReference: {fileID: 0}
    - target: {fileID: 2895414496702445900, guid: bc0a7b34cdcbf4d47a95b80155992db4,
        type: 3}
      propertyPath: m_RootOrder
      value: 3
      objectReference: {fileID: 0}
    - target: {fileID: 2895414496702445900, guid: bc0a7b34cdcbf4d47a95b80155992db4,
        type: 3}
      propertyPath: m_LocalEulerAnglesHint.x
      value: 0
      objectReference: {fileID: 0}
    - target: {fileID: 2895414496702445900, guid: bc0a7b34cdcbf4d47a95b80155992db4,
        type: 3}
      propertyPath: m_LocalEulerAnglesHint.y
      value: -90
      objectReference: {fileID: 0}
    - target: {fileID: 2895414496702445900, guid: bc0a7b34cdcbf4d47a95b80155992db4,
        type: 3}
      propertyPath: m_LocalEulerAnglesHint.z
      value: 0
      objectReference: {fileID: 0}
    - target: {fileID: 2895414495234131492, guid: bc0a7b34cdcbf4d47a95b80155992db4,
        type: 3}
      propertyPath: m_LocalPosition.y
      value: -0.01
      objectReference: {fileID: 0}
    - target: {fileID: 2895414495234131499, guid: bc0a7b34cdcbf4d47a95b80155992db4,
        type: 3}
      propertyPath: m_CastShadows
      value: 0
      objectReference: {fileID: 0}
    - target: {fileID: 2895414495234131499, guid: bc0a7b34cdcbf4d47a95b80155992db4,
        type: 3}
      propertyPath: m_ReceiveShadows
      value: 1
      objectReference: {fileID: 0}
    m_RemovedComponents: []
  m_SourcePrefab: {fileID: 100100000, guid: bc0a7b34cdcbf4d47a95b80155992db4, type: 3}
