%YAML 1.1
%TAG !u! tag:unity3d.com,2011:
--- !u!1 &6726070809121664823
GameObject:
  m_ObjectHideFlags: 0
  m_CorrespondingSourceObject: {fileID: 0}
  m_PrefabInstance: {fileID: 0}
  m_PrefabAsset: {fileID: 0}
  serializedVersion: 6
  m_Component:
  - component: {fileID: 6726070809121664817}
  - component: {fileID: 3997721500953339965}
  m_Layer: 0
  m_Name: AlienUlifoProjectile
  m_TagString: Untagged
  m_Icon: {fileID: 0}
  m_NavMeshLayer: 0
  m_StaticEditorFlags: 0
  m_IsActive: 0
--- !u!4 &6726070809121664817
Transform:
  m_ObjectHideFlags: 0
  m_CorrespondingSourceObject: {fileID: 0}
  m_PrefabInstance: {fileID: 0}
  m_PrefabAsset: {fileID: 0}
  m_GameObject: {fileID: 6726070809121664823}
  m_LocalRotation: {x: 0, y: 0, z: 0, w: 1}
  m_LocalPosition: {x: 0, y: 0, z: 0}
  m_LocalScale: {x: 1, y: 1, z: 1}
  m_Children: []
  m_Father: {fileID: 0}
  m_RootOrder: 0
  m_LocalEulerAnglesHint: {x: 0, y: 0, z: 0}
--- !u!114 &3997721500953339965
MonoBehaviour:
  m_ObjectHideFlags: 0
  m_CorrespondingSourceObject: {fileID: 0}
  m_PrefabInstance: {fileID: 0}
  m_PrefabAsset: {fileID: 0}
  m_GameObject: {fileID: 6726070809121664823}
  m_Enabled: 1
  m_EditorHideFlags: 0
  m_Script: {fileID: 11500000, guid: 0a79ab1ac1be14847ad31e1ba694c8d6, type: 3}
  m_Name: 
  m_EditorClassIdentifier: 
  speedKoeficient: 1
  bow: {fileID: 4098771408951716779, guid: cff9aa3ed098cda44a1ab1d9a474c99e, type: 3}
  enemyProjectile: {fileID: 3903766335876109394, guid: 52b2f0e245685954a97c1c2701140554,
    type: 3}
